%MOMM*%
%FSLAX34Y34*%
%ADD25C,0.1000000*%
%ADD198C,1.3716000*%
%ADD201C,1.9000000*%
%ADD204C,3.3000000*%
%ADD269C,1.4732000*%
%ADD300C,3.4000000*%
%ADD424C,2.5000000*%
%ADD468C,6.1000000*%
%ADD469C,2.5146000*%
%ADD470R,1.5000000X1.1000000*%
%ADD471C,1.8796000*%
%ADD472R,0.7000000X0.9000000*%
%ADD473R,2.2000000X1.5000000*%
%ADD474R,1.7000000X0.9000000*%
%ADD475R,3.1000000X1.8000000*%
%ADD476R,0.9000000X1.7000000*%
%ADD477R,1.8000000X3.1000000*%
%ADD478C,10.1000000*%
%ADD479R,1.1000000X1.5000000*%
G90*G71*G01*D02*G54D25*X20500Y110000D02*X20500Y136000D01*
X36500Y136000D01*X36500Y110000D01*X20500Y110000D01*X309500Y110000D02*
X309500Y136000D01*X293500Y136000D01*X293500Y110000D01*X309500Y110000D01*
X708000Y215000D02*X734000Y215000D01*X734000Y200000D01*X708000Y200000D01*
X708000Y215000D01*X708000Y-8000D02*X734000Y-8000D01*
X734000Y7000D01*X708000Y7000D01*X708000Y-8000D01*
X653135Y54020D02*X629800Y30685D01*X648185Y12300D01*X671520Y35635D01*
X653135Y54020D01*X793815Y194700D02*X770480Y171365D01*X788865Y152980D01*
X812200Y176315D01*X793815Y194700D01*X812200Y30685D02*X788865Y54020D01*
X770480Y35635D01*X793815Y12300D01*X812200Y30685D01*X671520Y171365D02*
X648185Y194700D01*X629800Y176315D01*X653135Y152980D01*X671520Y171365D01*
X3366000Y214500D02*X3392000Y214500D01*X3392000Y199500D01*X3366000Y199500D01*
X3366000Y214500D01*X3366000Y-8500D02*X3392000Y-8500D01*
X3392000Y6500D01*X3366000Y6500D01*X3366000Y-8500D01*
X3311135Y53520D02*X3287800Y30185D01*X3306185Y11800D01*X3329520Y35135D01*
X3311135Y53520D01*X3451815Y194200D02*X3428480Y170865D01*X3446865Y152480D01*
X3470200Y175815D01*X3451815Y194200D01*X3470200Y30185D02*X3446865Y53520D01*
X3428480Y35135D01*X3451815Y11800D01*X3470200Y30185D01*X3329520Y170865D02*
X3306185Y194200D01*X3287800Y175815D01*X3311135Y152480D01*X3329520Y170865D01*
X3790500Y110000D02*X3790500Y136000D01*X3806500Y136000D01*X3806500Y110000D01*
X3790500Y110000D01*X4079500Y110000D02*X4079500Y136000D01*X4063500Y136000D01*
X4063500Y110000D01*X4079500Y110000D01*X2112988Y876656D02*X2114492Y833577D01*
X2112987Y876656D02*X2112977Y877784D01*X2113024Y878911D01*X2113129Y880033D01*
X2113292Y881149D01*X2113511Y882256D01*X2113787Y883349D01*X2114119Y884427D01*
X2114505Y885487D01*X2114945Y886525D01*X2115438Y887540D01*X2115982Y888527D01*
X2116576Y889486D01*X2117218Y890413D01*X2117907Y891306D01*X2118641Y892162D01*
X2119418Y892980D01*X2120236Y893757D01*X2121092Y894491D01*X2121985Y895180D01*
X2122912Y895822D01*X2123871Y896416D01*X2124858Y896960D01*X2125873Y897453D01*
X2126911Y897893D01*X2127971Y898279D01*X2129049Y898611D01*X2130142Y898887D01*
X2131249Y899106D01*X2132365Y899269D01*X2133488Y899374D01*X2134614Y899421D01*
X2135742Y899411D01*X2339114Y892309D02*X2135742Y899410D01*X2339114Y892309D02*
X2340144Y892249D01*X2341170Y892140D01*X2342190Y891984D01*X2343202Y891780D01*
X2344202Y891528D01*X2345190Y891231D01*X2346163Y890887D01*X2347119Y890497D01*
X2348055Y890064D01*X2348970Y889587D01*X2349862Y889068D01*X2350728Y888507D01*
X2351567Y887906D01*X2352377Y887267D01*X2353156Y886591D01*X2353902Y885878D01*
X2354615Y885132D01*X2355291Y884353D01*X2355930Y883543D01*X2356531Y882704D01*
X2357092Y881838D01*X2357611Y880946D01*X2358088Y880031D01*X2358521Y879095D01*
X2358911Y878139D01*X2359255Y877166D01*X2359552Y876178D01*X2359804Y875178D01*
X2360008Y874166D01*X2360164Y873146D01*X2360273Y872120D01*X2360333Y871090D01*
X2141989Y899192D02*X2240669Y895746D01*X2360333Y871090D02*X2361837Y828011D01*
X2361838Y828011D02*X2361848Y826883D01*X2361801Y825756D01*X2361696Y824634D01*
X2361533Y823518D01*X2361314Y822411D01*X2361038Y821318D01*X2360706Y820240D01*
X2360320Y819180D01*X2359880Y818142D01*X2359387Y817127D01*X2358843Y816140D01*
X2358249Y815181D01*X2357607Y814254D01*X2356918Y813361D01*X2356184Y812505D01*
X2355407Y811687D01*X2354589Y810910D01*X2353733Y810176D01*X2352840Y809487D01*
X2351913Y808845D01*X2350954Y808251D01*X2349967Y807707D01*X2348952Y807214D01*
X2347914Y806774D01*X2346854Y806388D01*X2345776Y806056D01*X2344683Y805780D01*
X2343577Y805561D01*X2342460Y805398D01*X2341338Y805293D01*X2340211Y805246D01*
X2339083Y805256D01*X2339083Y805257D02*X2135711Y812358D01*X2135711Y812358D02*
X2134681Y812418D01*X2133655Y812527D01*X2132635Y812683D01*X2131624Y812887D01*
X2130623Y813139D01*X2129635Y813437D01*X2128662Y813781D01*X2127706Y814170D01*
X2126770Y814603D01*X2125855Y815080D01*X2124964Y815600D01*X2124097Y816160D01*
X2123258Y816761D01*X2122448Y817400D01*X2121669Y818076D01*X2120923Y818789D01*
X2120210Y819535D01*X2119534Y820314D01*X2118895Y821124D01*X2118294Y821963D01*
X2117734Y822830D01*X2117214Y823721D01*X2116737Y824636D01*X2116304Y825572D01*
X2115915Y826528D01*X2115571Y827501D01*X2115273Y828489D01*X2115021Y829490D01*
X2114817Y830501D01*X2114661Y831521D01*X2114552Y832547D01*X2114492Y833577D01*
X1972500Y1128000D02*X2017500Y1128000D01*X2017500Y1128000D02*X2016520Y1128048D01*
X2015549Y1128192D01*X2014597Y1128431D01*X2013673Y1128761D01*X2012786Y1129181D01*
X2011944Y1129685D01*X2011156Y1130270D01*X2010429Y1130929D01*X2009770Y1131656D01*
X2009185Y1132444D01*X2008681Y1133286D01*X2008261Y1134173D01*X2007931Y1135097D01*
X2007692Y1136049D01*X2007548Y1137020D01*X2007500Y1138000D01*X2007548Y1138980D01*
X2007692Y1139951D01*X2007931Y1140903D01*X2008261Y1141827D01*X2008681Y1142714D01*
X2009185Y1143556D01*X2009770Y1144344D01*X2010429Y1145071D01*X2011156Y1145730D01*
X2011944Y1146315D01*X2012786Y1146819D01*X2013673Y1147239D01*X2014597Y1147569D01*
X2015549Y1147808D01*X2016520Y1147952D01*X2017500Y1148000D01*X2017500Y1148000D02*
X1972500Y1148000D01*X1972500Y1148000D02*X1973480Y1147952D01*X1974451Y1147808D01*
X1975403Y1147569D01*X1976327Y1147239D01*X1977214Y1146819D01*X1978056Y1146315D01*
X1978844Y1145730D01*X1979571Y1145071D01*X1980230Y1144344D01*X1980815Y1143556D01*
X1981319Y1142714D01*X1981739Y1141827D01*X1982069Y1140903D01*X1982308Y1139951D01*
X1982452Y1138980D01*X1982500Y1138000D01*X1982452Y1137020D01*X1982308Y1136049D01*
X1982069Y1135097D01*X1981739Y1134173D01*X1981319Y1133286D01*X1980815Y1132444D01*
X1980230Y1131656D01*X1979571Y1130929D01*X1978844Y1130270D01*X1978056Y1129685D01*
X1977214Y1129181D01*X1976327Y1128761D01*X1975403Y1128431D01*X1974451Y1128192D01*
X1973480Y1128048D01*X1972500Y1128000D01*X1972500Y1048000D02*X2017500Y1048000D01*
X2017500Y1048000D02*X2016520Y1048048D01*X2015549Y1048192D01*X2014597Y1048431D01*
X2013673Y1048761D01*X2012786Y1049181D01*X2011944Y1049685D01*X2011156Y1050270D01*
X2010429Y1050929D01*X2009770Y1051656D01*X2009185Y1052444D01*X2008681Y1053286D01*
X2008261Y1054173D01*X2007931Y1055097D01*X2007692Y1056049D01*X2007548Y1057020D01*
X2007500Y1058000D01*X2007548Y1058980D01*X2007692Y1059951D01*X2007931Y1060903D01*
X2008261Y1061827D01*X2008681Y1062714D01*X2009185Y1063556D01*X2009770Y1064344D01*
X2010429Y1065071D01*X2011156Y1065730D01*X2011944Y1066315D01*X2012786Y1066819D01*
X2013673Y1067239D01*X2014597Y1067569D01*X2015549Y1067808D01*X2016520Y1067952D01*
X2017500Y1068000D01*X2017500Y1068000D02*X1972500Y1068000D01*X1972500Y1068000D02*
X1973480Y1067952D01*X1974451Y1067808D01*X1975403Y1067569D01*X1976327Y1067239D01*
X1977214Y1066819D01*X1978056Y1066315D01*X1978844Y1065730D01*X1979571Y1065071D01*
X1980230Y1064344D01*X1980815Y1063556D01*X1981319Y1062714D01*X1981739Y1061827D01*
X1982069Y1060903D01*X1982308Y1059951D01*X1982452Y1058980D01*X1982500Y1058000D01*
X1982452Y1057020D01*X1982308Y1056049D01*X1982069Y1055097D01*X1981739Y1054173D01*
X1981319Y1053286D01*X1980815Y1052444D01*X1980230Y1051656D01*X1979571Y1050929D01*
X1978844Y1050270D01*X1978056Y1049685D01*X1977214Y1049181D01*X1976327Y1048761D01*
X1975403Y1048431D01*X1974451Y1048192D01*X1973480Y1048048D01*X1972500Y1048000D01*
X1935000Y885500D02*X1935000Y840500D01*X1935000Y840500D02*X1935048Y841480D01*
X1935192Y842451D01*X1935431Y843403D01*X1935761Y844327D01*X1936181Y845214D01*
X1936685Y846056D01*X1937270Y846844D01*X1937929Y847571D01*X1938656Y848230D01*
X1939444Y848815D01*X1940286Y849319D01*X1941173Y849739D01*X1942097Y850069D01*
X1943049Y850308D01*X1944020Y850452D01*X1945000Y850500D01*X1945980Y850452D01*
X1946951Y850308D01*X1947903Y850069D01*X1948827Y849739D01*X1949714Y849319D01*
X1950556Y848815D01*X1951344Y848230D01*X1952071Y847571D01*X1952730Y846844D01*
X1953315Y846056D01*X1953819Y845214D01*X1954239Y844327D01*X1954569Y843403D01*
X1954808Y842451D01*X1954952Y841480D01*X1955000Y840500D01*X1955000Y840500D02*
X1955000Y885500D01*X1955000Y885500D02*X1954952Y884520D01*X1954808Y883549D01*
X1954569Y882597D01*X1954239Y881673D01*X1953819Y880786D01*X1953315Y879944D01*
X1952730Y879156D01*X1952071Y878429D01*X1951344Y877770D01*X1950556Y877185D01*
X1949714Y876681D01*X1948827Y876261D01*X1947903Y875931D01*X1946951Y875692D01*
X1945980Y875548D01*X1945000Y875500D01*X1944020Y875548D01*X1943049Y875692D01*
X1942097Y875931D01*X1941173Y876261D01*X1940286Y876681D01*X1939444Y877185D01*
X1938656Y877770D01*X1937929Y878429D01*X1937270Y879156D01*X1936685Y879944D01*
X1936181Y880786D01*X1935761Y881673D01*X1935431Y882597D01*X1935192Y883549D01*
X1935048Y884520D01*X1935000Y885500D01*X2511000Y875500D02*X2511000Y830500D01*
X2511000Y830500D02*X2511048Y831480D01*X2511192Y832451D01*X2511431Y833403D01*
X2511761Y834327D01*X2512181Y835214D01*X2512685Y836056D01*X2513270Y836844D01*
X2513929Y837571D01*X2514656Y838230D01*X2515444Y838815D01*X2516286Y839319D01*
X2517173Y839739D01*X2518097Y840069D01*X2519049Y840308D01*X2520020Y840452D01*
X2521000Y840500D01*X2521980Y840452D01*X2522951Y840308D01*X2523903Y840069D01*
X2524827Y839739D01*X2525714Y839319D01*X2526556Y838815D01*X2527344Y838230D01*
X2528071Y837571D01*X2528730Y836844D01*X2529315Y836056D01*X2529819Y835214D01*
X2530239Y834327D01*X2530569Y833403D01*X2530808Y832451D01*X2530952Y831480D01*
X2531000Y830500D01*X2531000Y830500D02*X2531000Y875500D01*X2531000Y875500D02*
X2530952Y874520D01*X2530808Y873549D01*X2530569Y872597D01*X2530239Y871673D01*
X2529819Y870786D01*X2529315Y869944D01*X2528730Y869156D01*X2528071Y868429D01*
X2527344Y867770D01*X2526556Y867185D01*X2525714Y866681D01*X2524827Y866261D01*
X2523903Y865931D01*X2522951Y865692D01*X2521980Y865548D01*X2521000Y865500D01*
X2520020Y865548D01*X2519049Y865692D01*X2518097Y865931D01*X2517173Y866261D01*
X2516286Y866681D01*X2515444Y867185D01*X2514656Y867770D01*X2513929Y868429D01*
X2513270Y869156D01*X2512685Y869944D01*X2512181Y870786D01*X2511761Y871673D01*
X2511431Y872597D01*X2511192Y873549D01*X2511048Y874520D01*X2511000Y875500D01*
X2511000Y712814D02*X2511000Y940688D01*X1998906Y764388D02*X2499781Y702888D01*
X2501349Y950682D02*X2006745Y967954D01*X1935000Y681000D02*X2531000Y681000D01*
X2531000Y681000D02*X2531000Y988000D01*X1925000Y1048000D02*X2625000Y1048000D01*
X1955000Y917985D02*X1955000Y814015D01*X1935000Y968000D02*X1935000Y681000D01*
X2605000Y1122500D02*X2605000Y1077500D01*X2605000Y1077500D02*X2605048Y1078480D01*
X2605192Y1079451D01*X2605431Y1080403D01*X2605761Y1081327D01*X2606181Y1082214D01*
X2606685Y1083056D01*X2607270Y1083844D01*X2607929Y1084571D01*X2608656Y1085230D01*
X2609444Y1085815D01*X2610286Y1086319D01*X2611173Y1086739D01*X2612097Y1087069D01*
X2613049Y1087308D01*X2614020Y1087452D01*X2615000Y1087500D01*X2615980Y1087452D01*
X2616951Y1087308D01*X2617903Y1087069D01*X2618827Y1086739D01*X2619714Y1086319D01*
X2620556Y1085815D01*X2621344Y1085230D01*X2622071Y1084571D01*X2622730Y1083844D01*
X2623315Y1083056D01*X2623819Y1082214D01*X2624239Y1081327D01*X2624569Y1080403D01*
X2624808Y1079451D01*X2624952Y1078480D01*X2625000Y1077500D01*X2625000Y1077500D02*
X2625000Y1122500D01*X2625000Y1122500D02*X2624952Y1121520D01*X2624808Y1120549D01*
X2624569Y1119597D01*X2624239Y1118673D01*X2623819Y1117786D01*X2623315Y1116944D01*
X2622730Y1116156D01*X2622071Y1115429D01*X2621344Y1114770D01*X2620556Y1114185D01*
X2619714Y1113681D01*X2618827Y1113261D01*X2617903Y1112931D01*X2616951Y1112692D01*
X2615980Y1112548D01*X2615000Y1112500D01*X2614020Y1112548D01*X2613049Y1112692D01*
X2612097Y1112931D01*X2611173Y1113261D01*X2610286Y1113681D01*X2609444Y1114185D01*
X2608656Y1114770D01*X2607929Y1115429D01*X2607270Y1116156D01*X2606685Y1116944D01*
X2606181Y1117786D01*X2605761Y1118673D01*X2605431Y1119597D01*X2605192Y1120549D01*
X2605048Y1121520D01*X2605000Y1122500D01*X2605000Y1202500D02*X2605000Y1157500D01*
X2605000Y1157500D02*X2605048Y1158480D01*X2605192Y1159451D01*X2605431Y1160403D01*
X2605761Y1161327D01*X2606181Y1162214D01*X2606685Y1163056D01*X2607270Y1163844D01*
X2607929Y1164571D01*X2608656Y1165230D01*X2609444Y1165815D01*X2610286Y1166319D01*
X2611173Y1166739D01*X2612097Y1167069D01*X2613049Y1167308D01*X2614020Y1167452D01*
X2615000Y1167500D01*X2615980Y1167452D01*X2616951Y1167308D01*X2617903Y1167069D01*
X2618827Y1166739D01*X2619714Y1166319D01*X2620556Y1165815D01*X2621344Y1165230D01*
X2622071Y1164571D01*X2622730Y1163844D01*X2623315Y1163056D01*X2623819Y1162214D01*
X2624239Y1161327D01*X2624569Y1160403D01*X2624808Y1159451D01*X2624952Y1158480D01*
X2625000Y1157500D01*X2625000Y1157500D02*X2625000Y1202500D01*X2625000Y1202500D02*
X2624952Y1201520D01*X2624808Y1200549D01*X2624569Y1199597D01*X2624239Y1198673D01*
X2623819Y1197786D01*X2623315Y1196944D01*X2622730Y1196156D01*X2622071Y1195429D01*
X2621344Y1194770D01*X2620556Y1194185D01*X2619714Y1193681D01*X2618827Y1193261D01*
X2617903Y1192931D01*X2616951Y1192692D01*X2615980Y1192548D01*X2615000Y1192500D01*
X2614020Y1192548D01*X2613049Y1192692D01*X2612097Y1192931D01*X2611173Y1193261D01*
X2610286Y1193681D01*X2609444Y1194185D01*X2608656Y1194770D01*X2607929Y1195429D01*
X2607270Y1196156D01*X2606685Y1196944D01*X2606181Y1197786D01*X2605761Y1198673D01*
X2605431Y1199597D01*X2605192Y1200549D01*X2605048Y1201520D01*X2605000Y1202500D01*
X1905000Y1037500D02*X1905000Y992500D01*X1905000Y992500D02*X1905048Y993480D01*
X1905192Y994451D01*X1905431Y995403D01*X1905761Y996327D01*X1906181Y997214D01*
X1906685Y998056D01*X1907270Y998844D01*X1907929Y999571D01*X1908656Y1000230D01*
X1909444Y1000815D01*X1910286Y1001319D01*X1911173Y1001739D01*X1912097Y1002069D01*
X1913049Y1002308D01*X1914020Y1002452D01*X1915000Y1002500D01*X1915980Y1002452D01*
X1916951Y1002308D01*X1917903Y1002069D01*X1918827Y1001739D01*X1919714Y1001319D01*
X1920556Y1000815D01*X1921344Y1000230D01*X1922071Y999571D01*X1922730Y998844D01*
X1923315Y998056D01*X1923819Y997214D01*X1924239Y996327D01*X1924569Y995403D01*
X1924808Y994451D01*X1924952Y993480D01*X1925000Y992500D01*X1925000Y992500D02*
X1925000Y1037500D01*X1925000Y1037500D02*X1924952Y1036520D01*X1924808Y1035549D01*
X1924569Y1034597D01*X1924239Y1033673D01*X1923819Y1032786D01*X1923315Y1031944D01*
X1922730Y1031156D01*X1922071Y1030429D01*X1921344Y1029770D01*X1920556Y1029185D01*
X1919714Y1028681D01*X1918827Y1028261D01*X1917903Y1027931D01*X1916951Y1027692D01*
X1915980Y1027548D01*X1915000Y1027500D01*X1914020Y1027548D01*X1913049Y1027692D01*
X1912097Y1027931D01*X1911173Y1028261D01*X1910286Y1028681D01*X1909444Y1029185D01*
X1908656Y1029770D01*X1907929Y1030429D01*X1907270Y1031156D01*X1906685Y1031944D01*
X1906181Y1032786D01*X1905761Y1033673D01*X1905431Y1034597D01*X1905192Y1035549D01*
X1905048Y1036520D01*X1905000Y1037500D01*X1905000Y1197500D02*X1905000Y1152500D01*
X1905000Y1152500D02*X1905048Y1153480D01*X1905192Y1154451D01*X1905431Y1155403D01*
X1905761Y1156327D01*X1906181Y1157214D01*X1906685Y1158056D01*X1907270Y1158844D01*
X1907929Y1159571D01*X1908656Y1160230D01*X1909444Y1160815D01*X1910286Y1161319D01*
X1911173Y1161739D01*X1912097Y1162069D01*X1913049Y1162308D01*X1914020Y1162452D01*
X1915000Y1162500D01*X1915980Y1162452D01*X1916951Y1162308D01*X1917903Y1162069D01*
X1918827Y1161739D01*X1919714Y1161319D01*X1920556Y1160815D01*X1921344Y1160230D01*
X1922071Y1159571D01*X1922730Y1158844D01*X1923315Y1158056D01*X1923819Y1157214D01*
X1924239Y1156327D01*X1924569Y1155403D01*X1924808Y1154451D01*X1924952Y1153480D01*
X1925000Y1152500D01*X1925000Y1152500D02*X1925000Y1197500D01*X1925000Y1197500D02*
X1924952Y1196520D01*X1924808Y1195549D01*X1924569Y1194597D01*X1924239Y1193673D01*
X1923819Y1192786D01*X1923315Y1191944D01*X1922730Y1191156D01*X1922071Y1190429D01*
X1921344Y1189770D01*X1920556Y1189185D01*X1919714Y1188681D01*X1918827Y1188261D01*
X1917903Y1187931D01*X1916951Y1187692D01*X1915980Y1187548D01*X1915000Y1187500D01*
X1914020Y1187548D01*X1913049Y1187692D01*X1912097Y1187931D01*X1911173Y1188261D01*
X1910286Y1188681D01*X1909444Y1189185D01*X1908656Y1189770D01*X1907929Y1190429D01*
X1907270Y1191156D01*X1906685Y1191944D01*X1906181Y1192786D01*X1905761Y1193673D01*
X1905431Y1194597D01*X1905192Y1195549D01*X1905048Y1196520D01*X1905000Y1197500D01*
X1805000Y1177500D02*X1805000Y1132500D01*X1805000Y1132500D02*X1805048Y1133480D01*
X1805192Y1134451D01*X1805431Y1135403D01*X1805761Y1136327D01*X1806181Y1137214D01*
X1806685Y1138056D01*X1807270Y1138844D01*X1807929Y1139571D01*X1808656Y1140230D01*
X1809444Y1140815D01*X1810286Y1141319D01*X1811173Y1141739D01*X1812097Y1142069D01*
X1813049Y1142308D01*X1814020Y1142452D01*X1815000Y1142500D01*X1815980Y1142452D01*
X1816951Y1142308D01*X1817903Y1142069D01*X1818827Y1141739D01*X1819714Y1141319D01*
X1820556Y1140815D01*X1821344Y1140230D01*X1822071Y1139571D01*X1822730Y1138844D01*
X1823315Y1138056D01*X1823819Y1137214D01*X1824239Y1136327D01*X1824569Y1135403D01*
X1824808Y1134451D01*X1824952Y1133480D01*X1825000Y1132500D01*X1825000Y1132500D02*
X1825000Y1177500D01*X1825000Y1177500D02*X1824952Y1176520D01*X1824808Y1175549D01*
X1824569Y1174597D01*X1824239Y1173673D01*X1823819Y1172786D01*X1823315Y1171944D01*
X1822730Y1171156D01*X1822071Y1170429D01*X1821344Y1169770D01*X1820556Y1169185D01*
X1819714Y1168681D01*X1818827Y1168261D01*X1817903Y1167931D01*X1816951Y1167692D01*
X1815980Y1167548D01*X1815000Y1167500D01*X1814020Y1167548D01*X1813049Y1167692D01*
X1812097Y1167931D01*X1811173Y1168261D01*X1810286Y1168681D01*X1809444Y1169185D01*
X1808656Y1169770D01*X1807929Y1170429D01*X1807270Y1171156D01*X1806685Y1171944D01*
X1806181Y1172786D01*X1805761Y1173673D01*X1805431Y1174597D01*X1805192Y1175549D01*
X1805048Y1176520D01*X1805000Y1177500D01*X1805000Y1057500D02*X1805000Y1012500D01*
X1805000Y1012500D02*X1805048Y1013480D01*X1805192Y1014451D01*X1805431Y1015403D01*
X1805761Y1016327D01*X1806181Y1017214D01*X1806685Y1018056D01*X1807270Y1018844D01*
X1807929Y1019571D01*X1808656Y1020230D01*X1809444Y1020815D01*X1810286Y1021319D01*
X1811173Y1021739D01*X1812097Y1022069D01*X1813049Y1022308D01*X1814020Y1022452D01*
X1815000Y1022500D01*X1815980Y1022452D01*X1816951Y1022308D01*X1817903Y1022069D01*
X1818827Y1021739D01*X1819714Y1021319D01*X1820556Y1020815D01*X1821344Y1020230D01*
X1822071Y1019571D01*X1822730Y1018844D01*X1823315Y1018056D01*X1823819Y1017214D01*
X1824239Y1016327D01*X1824569Y1015403D01*X1824808Y1014451D01*X1824952Y1013480D01*
X1825000Y1012500D01*X1825000Y1012500D02*X1825000Y1057500D01*X1825000Y1057500D02*
X1824952Y1056520D01*X1824808Y1055549D01*X1824569Y1054597D01*X1824239Y1053673D01*
X1823819Y1052786D01*X1823315Y1051944D01*X1822730Y1051156D01*X1822071Y1050429D01*
X1821344Y1049770D01*X1820556Y1049185D01*X1819714Y1048681D01*X1818827Y1048261D01*
X1817903Y1047931D01*X1816951Y1047692D01*X1815980Y1047548D01*X1815000Y1047500D01*
X1814020Y1047548D01*X1813049Y1047692D01*X1812097Y1047931D01*X1811173Y1048261D01*
X1810286Y1048681D01*X1809444Y1049185D01*X1808656Y1049770D01*X1807929Y1050429D01*
X1807270Y1051156D01*X1806685Y1051944D01*X1806181Y1052786D01*X1805761Y1053673D01*
X1805431Y1054597D01*X1805192Y1055549D01*X1805048Y1056520D01*X1805000Y1057500D01*
X1705000Y1057500D02*X1705000Y1012500D01*X1705000Y1012500D02*X1705048Y1013480D01*
X1705192Y1014451D01*X1705431Y1015403D01*X1705761Y1016327D01*X1706181Y1017214D01*
X1706685Y1018056D01*X1707270Y1018844D01*X1707929Y1019571D01*X1708656Y1020230D01*
X1709444Y1020815D01*X1710286Y1021319D01*X1711173Y1021739D01*X1712097Y1022069D01*
X1713049Y1022308D01*X1714020Y1022452D01*X1715000Y1022500D01*X1715980Y1022452D01*
X1716951Y1022308D01*X1717903Y1022069D01*X1718827Y1021739D01*X1719714Y1021319D01*
X1720556Y1020815D01*X1721344Y1020230D01*X1722071Y1019571D01*X1722730Y1018844D01*
X1723315Y1018056D01*X1723819Y1017214D01*X1724239Y1016327D01*X1724569Y1015403D01*
X1724808Y1014451D01*X1724952Y1013480D01*X1725000Y1012500D01*X1725000Y1012500D02*
X1725000Y1057500D01*X1725000Y1057500D02*X1724952Y1056520D01*X1724808Y1055549D01*
X1724569Y1054597D01*X1724239Y1053673D01*X1723819Y1052786D01*X1723315Y1051944D01*
X1722730Y1051156D01*X1722071Y1050429D01*X1721344Y1049770D01*X1720556Y1049185D01*
X1719714Y1048681D01*X1718827Y1048261D01*X1717903Y1047931D01*X1716951Y1047692D01*
X1715980Y1047548D01*X1715000Y1047500D01*X1714020Y1047548D01*X1713049Y1047692D01*
X1712097Y1047931D01*X1711173Y1048261D01*X1710286Y1048681D01*X1709444Y1049185D01*
X1708656Y1049770D01*X1707929Y1050429D01*X1707270Y1051156D01*X1706685Y1051944D01*
X1706181Y1052786D01*X1705761Y1053673D01*X1705431Y1054597D01*X1705192Y1055549D01*
X1705048Y1056520D01*X1705000Y1057500D01*X1705000Y1177500D02*X1705000Y1132500D01*
X1705000Y1132500D02*X1705048Y1133480D01*X1705192Y1134451D01*X1705431Y1135403D01*
X1705761Y1136327D01*X1706181Y1137214D01*X1706685Y1138056D01*X1707270Y1138844D01*
X1707929Y1139571D01*X1708656Y1140230D01*X1709444Y1140815D01*X1710286Y1141319D01*
X1711173Y1141739D01*X1712097Y1142069D01*X1713049Y1142308D01*X1714020Y1142452D01*
X1715000Y1142500D01*X1715980Y1142452D01*X1716951Y1142308D01*X1717903Y1142069D01*
X1718827Y1141739D01*X1719714Y1141319D01*X1720556Y1140815D01*X1721344Y1140230D01*
X1722071Y1139571D01*X1722730Y1138844D01*X1723315Y1138056D01*X1723819Y1137214D01*
X1724239Y1136327D01*X1724569Y1135403D01*X1724808Y1134451D01*X1724952Y1133480D01*
X1725000Y1132500D01*X1725000Y1132500D02*X1725000Y1177500D01*X1725000Y1177500D02*
X1724952Y1176520D01*X1724808Y1175549D01*X1724569Y1174597D01*X1724239Y1173673D01*
X1723819Y1172786D01*X1723315Y1171944D01*X1722730Y1171156D01*X1722071Y1170429D01*
X1721344Y1169770D01*X1720556Y1169185D01*X1719714Y1168681D01*X1718827Y1168261D01*
X1717903Y1167931D01*X1716951Y1167692D01*X1715980Y1167548D01*X1715000Y1167500D01*
X1714020Y1167548D01*X1713049Y1167692D01*X1712097Y1167931D01*X1711173Y1168261D01*
X1710286Y1168681D01*X1709444Y1169185D01*X1708656Y1169770D01*X1707929Y1170429D01*
X1707270Y1171156D01*X1706685Y1171944D01*X1706181Y1172786D01*X1705761Y1173673D01*
X1705431Y1174597D01*X1705192Y1175549D01*X1705048Y1176520D01*X1705000Y1177500D01*
X1605000Y1177500D02*X1605000Y1132500D01*X1605000Y1132500D02*X1605048Y1133480D01*
X1605192Y1134451D01*X1605431Y1135403D01*X1605761Y1136327D01*X1606181Y1137214D01*
X1606685Y1138056D01*X1607270Y1138844D01*X1607929Y1139571D01*X1608656Y1140230D01*
X1609444Y1140815D01*X1610286Y1141319D01*X1611173Y1141739D01*X1612097Y1142069D01*
X1613049Y1142308D01*X1614020Y1142452D01*X1615000Y1142500D01*X1615980Y1142452D01*
X1616951Y1142308D01*X1617903Y1142069D01*X1618827Y1141739D01*X1619714Y1141319D01*
X1620556Y1140815D01*X1621344Y1140230D01*X1622071Y1139571D01*X1622730Y1138844D01*
X1623315Y1138056D01*X1623819Y1137214D01*X1624239Y1136327D01*X1624569Y1135403D01*
X1624808Y1134451D01*X1624952Y1133480D01*X1625000Y1132500D01*X1625000Y1132500D02*
X1625000Y1177500D01*X1625000Y1177500D02*X1624952Y1176520D01*X1624808Y1175549D01*
X1624569Y1174597D01*X1624239Y1173673D01*X1623819Y1172786D01*X1623315Y1171944D01*
X1622730Y1171156D01*X1622071Y1170429D01*X1621344Y1169770D01*X1620556Y1169185D01*
X1619714Y1168681D01*X1618827Y1168261D01*X1617903Y1167931D01*X1616951Y1167692D01*
X1615980Y1167548D01*X1615000Y1167500D01*X1614020Y1167548D01*X1613049Y1167692D01*
X1612097Y1167931D01*X1611173Y1168261D01*X1610286Y1168681D01*X1609444Y1169185D01*
X1608656Y1169770D01*X1607929Y1170429D01*X1607270Y1171156D01*X1606685Y1171944D01*
X1606181Y1172786D01*X1605761Y1173673D01*X1605431Y1174597D01*X1605192Y1175549D01*
X1605048Y1176520D01*X1605000Y1177500D01*X1605000Y1057500D02*X1605000Y1012500D01*
X1605000Y1012500D02*X1605048Y1013480D01*X1605192Y1014451D01*X1605431Y1015403D01*
X1605761Y1016327D01*X1606181Y1017214D01*X1606685Y1018056D01*X1607270Y1018844D01*
X1607929Y1019571D01*X1608656Y1020230D01*X1609444Y1020815D01*X1610286Y1021319D01*
X1611173Y1021739D01*X1612097Y1022069D01*X1613049Y1022308D01*X1614020Y1022452D01*
X1615000Y1022500D01*X1615980Y1022452D01*X1616951Y1022308D01*X1617903Y1022069D01*
X1618827Y1021739D01*X1619714Y1021319D01*X1620556Y1020815D01*X1621344Y1020230D01*
X1622071Y1019571D01*X1622730Y1018844D01*X1623315Y1018056D01*X1623819Y1017214D01*
X1624239Y1016327D01*X1624569Y1015403D01*X1624808Y1014451D01*X1624952Y1013480D01*
X1625000Y1012500D01*X1625000Y1012500D02*X1625000Y1057500D01*X1625000Y1057500D02*
X1624952Y1056520D01*X1624808Y1055549D01*X1624569Y1054597D01*X1624239Y1053673D01*
X1623819Y1052786D01*X1623315Y1051944D01*X1622730Y1051156D01*X1622071Y1050429D01*
X1621344Y1049770D01*X1620556Y1049185D01*X1619714Y1048681D01*X1618827Y1048261D01*
X1617903Y1047931D01*X1616951Y1047692D01*X1615980Y1047548D01*X1615000Y1047500D01*
X1614020Y1047548D01*X1613049Y1047692D01*X1612097Y1047931D01*X1611173Y1048261D01*
X1610286Y1048681D01*X1609444Y1049185D01*X1608656Y1049770D01*X1607929Y1050429D01*
X1607270Y1051156D01*X1606685Y1051944D01*X1606181Y1052786D01*X1605761Y1053673D01*
X1605431Y1054597D01*X1605192Y1055549D01*X1605048Y1056520D01*X1605000Y1057500D01*
X1505000Y1057500D02*X1505000Y1012500D01*X1505000Y1012500D02*X1505048Y1013480D01*
X1505192Y1014451D01*X1505431Y1015403D01*X1505761Y1016327D01*X1506181Y1017214D01*
X1506685Y1018056D01*X1507270Y1018844D01*X1507929Y1019571D01*X1508656Y1020230D01*
X1509444Y1020815D01*X1510286Y1021319D01*X1511173Y1021739D01*X1512097Y1022069D01*
X1513049Y1022308D01*X1514020Y1022452D01*X1515000Y1022500D01*X1515980Y1022452D01*
X1516951Y1022308D01*X1517903Y1022069D01*X1518827Y1021739D01*X1519714Y1021319D01*
X1520556Y1020815D01*X1521344Y1020230D01*X1522071Y1019571D01*X1522730Y1018844D01*
X1523315Y1018056D01*X1523819Y1017214D01*X1524239Y1016327D01*X1524569Y1015403D01*
X1524808Y1014451D01*X1524952Y1013480D01*X1525000Y1012500D01*X1525000Y1012500D02*
X1525000Y1057500D01*X1525000Y1057500D02*X1524952Y1056520D01*X1524808Y1055549D01*
X1524569Y1054597D01*X1524239Y1053673D01*X1523819Y1052786D01*X1523315Y1051944D01*
X1522730Y1051156D01*X1522071Y1050429D01*X1521344Y1049770D01*X1520556Y1049185D01*
X1519714Y1048681D01*X1518827Y1048261D01*X1517903Y1047931D01*X1516951Y1047692D01*
X1515980Y1047548D01*X1515000Y1047500D01*X1514020Y1047548D01*X1513049Y1047692D01*
X1512097Y1047931D01*X1511173Y1048261D01*X1510286Y1048681D01*X1509444Y1049185D01*
X1508656Y1049770D01*X1507929Y1050429D01*X1507270Y1051156D01*X1506685Y1051944D01*
X1506181Y1052786D01*X1505761Y1053673D01*X1505431Y1054597D01*X1505192Y1055549D01*
X1505048Y1056520D01*X1505000Y1057500D01*X3670581Y1173936D02*X3670581Y1210000D01*
X2625000Y1210000D02*X3670581Y1210000D01*X429419Y1208000D02*X1505000Y1208000D01*
X20000Y0D02*X19019Y24D01*X18040Y96D01*X17065Y217D01*
X16098Y384D01*X15140Y599D01*X14194Y861D01*X13262Y1169D01*
X12346Y1522D01*X11449Y1920D01*X10572Y2362D01*X9718Y2845D01*
X8889Y3371D01*X8086Y3936D01*X7312Y4540D01*X6569Y5181D01*
X5858Y5858D01*X5181Y6569D01*X4540Y7312D01*X3936Y8086D01*
X3371Y8889D01*X2845Y9718D01*X2362Y10572D01*X1920Y11449D01*
X1522Y12346D01*X1169Y13262D01*X861Y14194D01*X599Y15140D01*
X384Y16098D01*X217Y17065D01*X96Y18040D01*X24Y19019D01*
X0Y20000D01*X0Y20000D02*X0Y1127000D01*X140000Y1208000D02*
X374419Y1208000D01*X374419Y1208000D02*X374419Y1173936D01*X429419Y1173936D02*
X429287Y1171241D01*X428891Y1168571D01*X428235Y1165953D01*X427326Y1163412D01*
X426172Y1160973D01*X424784Y1158658D01*X423177Y1156490D01*X421364Y1154491D01*
X419365Y1152678D01*X417197Y1151071D01*X414882Y1149683D01*X412443Y1148529D01*
X409902Y1147620D01*X407284Y1146964D01*X404615Y1146568D01*X401919Y1146436D01*
X399224Y1146568D01*X396554Y1146964D01*X393936Y1147620D01*X391395Y1148529D01*
X388956Y1149683D01*X386641Y1151071D01*X384473Y1152678D01*X382474Y1154491D01*
X380661Y1156490D01*X379054Y1158658D01*X377666Y1160973D01*X376512Y1163412D01*
X375603Y1165953D01*X374947Y1168571D01*X374551Y1171241D01*X374419Y1173936D01*
X429419Y1208000D02*X429419Y1173936D01*X1965000Y0D02*X1965000Y35000D01*
X1965000Y0D02*X1373000Y0D01*X1373000Y0D02*X1373000Y25000D01*
X821058Y12000D02*X1223000Y12000D01*X1223000Y25000D01*X1373000Y25000D01*
X821058Y12000D02*X816188Y6918D01*X811061Y2096D01*
X805689Y-2453D01*X800088Y-6716D01*X794273Y-10682D01*
X788260Y-14340D01*X782064Y-17681D01*X775703Y-20694D01*
X769194Y-23372D01*X762554Y-25709D01*X755802Y-27696D01*
X748955Y-29330D01*X742033Y-30605D01*X735054Y-31518D01*
X728036Y-32067D01*X721000Y-32250D01*X713964Y-32067D01*
X706946Y-31518D01*X699967Y-30605D01*X693045Y-29330D01*
X686198Y-27696D01*X679446Y-25709D01*X672806Y-23372D01*
X666297Y-20694D01*X659936Y-17681D01*X653740Y-14340D01*
X647727Y-10682D01*X641912Y-6716D01*X636311Y-2453D01*
X630939Y2096D01*X625812Y6918D01*X620942Y12000D01*X273543Y12000D02*
X620942Y12000D01*X273543Y12000D02*X268474Y7260D01*X263199Y2752D01*
X257727Y-1516D01*X252070Y-5536D01*X246239Y-9298D01*
X240246Y-12796D01*X234102Y-16023D01*X227821Y-18972D01*
X221413Y-21638D01*X214894Y-24014D01*X208274Y-26097D01*
X201568Y-27882D01*X194789Y-29365D01*X187950Y-30544D01*
X181066Y-31417D01*X174149Y-31980D01*X167214Y-32234D01*
X160275Y-32178D01*X153345Y-31812D01*X146439Y-31136D01*
X139569Y-30153D01*X132751Y-28864D01*X125996Y-27271D01*
X119320Y-25378D01*X112735Y-23188D01*X106254Y-20707D01*
X99891Y-17938D01*X93658Y-14887D01*X87567Y-11562D01*
X81632Y-7967D01*X75862Y-4110D01*X70271Y0D01*
X70271Y0D02*X20000Y0D01*X4080000Y0D02*X4029729Y0D01*
X4100000Y20000D02*X4099976Y19019D01*X4099904Y18040D01*X4099784Y17065D01*
X4099616Y16098D01*X4099401Y15140D01*X4099139Y14194D01*X4098831Y13262D01*
X4098478Y12346D01*X4098080Y11449D01*X4097638Y10572D01*X4097155Y9718D01*
X4096629Y8889D01*X4096064Y8086D01*X4095460Y7312D01*X4094819Y6569D01*
X4094142Y5858D01*X4093431Y5181D01*X4092688Y4540D01*X4091914Y3936D01*
X4091111Y3371D01*X4090282Y2845D01*X4089428Y2362D01*X4088551Y1920D01*
X4087654Y1522D01*X4086738Y1169D01*X4085806Y861D01*X4084860Y599D01*
X4083902Y384D01*X4082935Y217D01*X4081960Y96D01*X4080981Y24D01*
X4080000Y0D01*X4100000Y1127000D02*X4100000Y20000D01*X3725581Y1208000D02*
X3960000Y1208000D01*X3725581Y1208000D02*X3725581Y1173936D01*X3725581Y1173936D02*
X3725449Y1171241D01*X3725053Y1168571D01*X3724397Y1165953D01*X3723488Y1163412D01*
X3722334Y1160973D01*X3720946Y1158658D01*X3719339Y1156490D01*X3717526Y1154491D01*
X3715527Y1152678D01*X3713359Y1151071D01*X3711044Y1149683D01*X3708605Y1148529D01*
X3706064Y1147620D01*X3703446Y1146964D01*X3700777Y1146568D01*X3698081Y1146436D01*
X3695386Y1146568D01*X3692716Y1146964D01*X3690098Y1147620D01*X3687557Y1148529D01*
X3685118Y1149683D01*X3682803Y1151071D01*X3680635Y1152678D01*X3678636Y1154491D01*
X3676823Y1156490D01*X3675216Y1158658D01*X3673828Y1160973D01*X3672674Y1163412D01*
X3671765Y1165953D01*X3671109Y1168571D01*X3670713Y1171241D01*X3670581Y1173936D01*
X1965000Y35000D02*X2135000Y35000D01*X2135000Y35000D02*X2135000Y0D01*
X2727000Y0D02*X2135000Y0D01*X2727000Y0D02*X2727000Y25000D01*
X2727000Y25000D02*X2877000Y25000D01*X2877000Y12000D02*X2877000Y25000D01*
X2877000Y12000D02*X3278942Y12000D01*X3479058Y12000D02*X3474188Y6918D01*
X3469061Y2096D01*X3463689Y-2453D01*X3458088Y-6716D01*
X3452273Y-10682D01*X3446260Y-14340D01*X3440064Y-17681D01*
X3433703Y-20694D01*X3427194Y-23372D01*X3420554Y-25709D01*
X3413802Y-27696D01*X3406955Y-29330D01*X3400033Y-30605D01*
X3393054Y-31518D01*X3386036Y-32067D01*X3379000Y-32250D01*
X3371964Y-32067D01*X3364946Y-31518D01*X3357967Y-30605D01*
X3351045Y-29330D01*X3344198Y-27696D01*X3337446Y-25709D01*
X3330806Y-23372D01*X3324297Y-20694D01*X3317936Y-17681D01*
X3311740Y-14340D01*X3305727Y-10682D01*X3299912Y-6716D01*
X3294311Y-2453D01*X3288939Y2096D01*X3283812Y6918D01*
X3278942Y12000D01*X3479058Y12000D02*X3826457Y12000D01*X4029729Y0D02*
X4024138Y-4110D01*X4018369Y-7967D01*X4012433Y-11561D01*
X4006342Y-14887D01*X4000109Y-17938D01*X3993746Y-20706D01*
X3987265Y-23188D01*X3980680Y-25378D01*X3974004Y-27271D01*
X3967250Y-28864D01*X3960431Y-30153D01*X3953561Y-31136D01*
X3946655Y-31812D01*X3939725Y-32178D01*X3932786Y-32234D01*
X3925851Y-31980D01*X3918934Y-31417D01*X3912050Y-30544D01*
X3905211Y-29365D01*X3898432Y-27882D01*X3891726Y-26097D01*
X3885107Y-24014D01*X3878587Y-21638D01*X3872179Y-18972D01*
X3865898Y-16023D01*X3859754Y-12796D01*X3853761Y-9298D01*
X3847930Y-5536D01*X3842273Y-1516D01*X3836801Y2752D01*
X3831526Y7260D01*X3826457Y12000D01*X140000Y1193000D02*X140000Y1208000D01*
X0Y1127000D02*X10000Y1127000D01*X40000Y1193000D02*X140000Y1193000D01*
X10000Y1127000D02*X10000Y1163000D01*X10000Y1163000D02*X10036Y1164472D01*
X10145Y1165941D01*X10325Y1167402D01*X10576Y1168853D01*X10899Y1170289D01*
X11292Y1171709D01*X11754Y1173107D01*X12284Y1174481D01*X12880Y1175827D01*
X13542Y1177142D01*X14268Y1178423D01*X15056Y1179667D01*X15904Y1180871D01*
X16810Y1182032D01*X17772Y1183147D01*X18787Y1184213D01*X19853Y1185229D01*
X20968Y1186190D01*X22129Y1187096D01*X23333Y1187944D01*X24577Y1188732D01*
X25858Y1189458D01*X27173Y1190120D01*X28520Y1190716D01*X29893Y1191246D01*
X31292Y1191708D01*X32711Y1192101D01*X34147Y1192424D01*X35598Y1192675D01*
X37060Y1192856D01*X38528Y1192964D01*X40000Y1193000D01*X3960000Y1193000D02*
X3960000Y1208000D01*X4100000Y1127000D02*X4090000Y1127000D01*X4060000Y1193000D02*
X3960000Y1193000D01*X4090000Y1127000D02*X4090000Y1163000D01*X4060000Y1193000D02*
X4061472Y1192964D01*X4062941Y1192856D01*X4064402Y1192675D01*X4065853Y1192424D01*
X4067289Y1192101D01*X4068709Y1191708D01*X4070107Y1191246D01*X4071481Y1190716D01*
X4072827Y1190120D01*X4074142Y1189458D01*X4075423Y1188732D01*X4076667Y1187944D01*
X4077871Y1187096D01*X4079032Y1186190D01*X4080147Y1185229D01*X4081213Y1184213D01*
X4082229Y1183147D01*X4083190Y1182032D01*X4084096Y1180871D01*X4084944Y1179667D01*
X4085732Y1178423D01*X4086458Y1177142D01*X4087120Y1175827D01*X4087716Y1174481D01*
X4088246Y1173107D01*X4088708Y1171709D01*X4089101Y1170289D01*X4089424Y1168853D01*
X4089675Y1167402D01*X4089856Y1165941D01*X4089964Y1164472D01*X4090000Y1163000D01*
X2605000Y1208000D02*X1925000Y1208000D01*X1925000Y1148000D01*X2605000Y1148000D01*
X2605000Y1208000D01*X2605000Y1128000D02*X1925000Y1128000D01*X1925000Y1068000D01*
X2605000Y1068000D01*X2605000Y1128000D01*X1825000Y988000D02*X1825000Y1088000D01*
X1905000Y1088000D01*X1905000Y988000D01*X1825000Y988000D01*X1825000Y1108000D02*
X1825000Y1208000D01*X1905000Y1208000D01*X1905000Y1108000D01*X1825000Y1108000D01*
X1725000Y1108000D02*X1725000Y1208000D01*X1805000Y1208000D01*X1805000Y1108000D01*
X1725000Y1108000D01*X1725000Y988000D02*X1725000Y1088000D01*X1805000Y1088000D01*
X1805000Y988000D01*X1725000Y988000D01*X1625000Y988000D02*X1625000Y1088000D01*
X1705000Y1088000D01*X1705000Y988000D01*X1625000Y988000D01*X1625000Y1108000D02*
X1625000Y1208000D01*X1705000Y1208000D01*X1705000Y1108000D01*X1625000Y1108000D01*
X1525000Y1108000D02*X1525000Y1208000D01*X1605000Y1208000D01*X1605000Y1108000D01*
X1525000Y1108000D01*X1525000Y988000D02*X1525000Y1088000D01*X1605000Y1088000D01*
X1605000Y988000D01*X1525000Y988000D01*X2501349Y950682D02*X2501828Y950654D01*
X2502305Y950603D01*X2502780Y950529D01*X2503250Y950432D01*X2503714Y950313D01*
X2504173Y950171D01*X2504624Y950008D01*X2505067Y949824D01*X2505501Y949618D01*
X2505924Y949392D01*X2506336Y949145D01*X2506736Y948880D01*X2507122Y948595D01*
X2507495Y948292D01*X2507852Y947972D01*X2508194Y947635D01*X2508519Y947282D01*
X2508826Y946913D01*X2509116Y946531D01*X2509387Y946134D01*X2509638Y945726D01*
X2509870Y945306D01*X2510082Y944875D01*X2510272Y944434D01*X2510441Y943985D01*
X2510588Y943528D01*X2510714Y943065D01*X2510816Y942596D01*X2510897Y942123D01*
X2510954Y941647D01*X2510989Y941168D01*X2511000Y940688D01*X2511000Y712814D02*
X2510986Y712285D01*X2510944Y711758D01*X2510874Y711233D01*X2510777Y710713D01*
X2510652Y710199D01*X2510501Y709692D01*X2510322Y709194D01*X2510118Y708706D01*
X2509888Y708230D01*X2509633Y707766D01*X2509354Y707317D01*X2509052Y706883D01*
X2508727Y706465D01*X2508380Y706065D01*X2508013Y705685D01*X2507626Y705324D01*
X2507221Y704984D01*X2506798Y704666D01*X2506359Y704370D01*X2505905Y704099D01*
X2505438Y703852D01*X2504958Y703629D01*X2504466Y703433D01*X2503965Y703263D01*
X2503456Y703119D01*X2502940Y703003D01*X2502419Y702914D01*X2501893Y702853D01*
X2501365Y702820D01*X2500836Y702814D01*X2500308Y702837D01*X2499781Y702888D01*
X1998906Y764388D02*X1996666Y764715D01*X1994444Y765142D01*X1992243Y765670D01*
X1990068Y766297D01*X1987924Y767021D01*X1985815Y767842D01*X1983745Y768758D01*
X1981719Y769766D01*X1979740Y770865D01*X1977814Y772052D01*X1975942Y773325D01*
X1974131Y774682D01*X1972383Y776119D01*X1970701Y777634D01*X1969090Y779224D01*
X1967552Y780884D01*X1966091Y782613D01*X1964710Y784406D01*X1963411Y786260D01*
X1962198Y788170D01*X1961072Y790133D01*X1960037Y792146D01*X1959093Y794203D01*
X1958243Y796301D01*X1957490Y798435D01*X1956833Y800601D01*X1956276Y802794D01*
X1955818Y805011D01*X1955461Y807245D01*X1955205Y809494D01*X1955051Y811752D01*
X1955000Y814015D01*X1955000Y917985D02*X1955063Y920493D01*X1955252Y922994D01*
X1955566Y925483D01*X1956004Y927953D01*X1956566Y930398D01*X1957249Y932812D01*
X1958053Y935188D01*X1958975Y937521D01*X1960013Y939805D01*X1961164Y942034D01*
X1962425Y944202D01*X1963794Y946305D01*X1965266Y948336D01*X1966839Y950291D01*
X1968507Y952164D01*X1970267Y953951D01*X1972115Y955648D01*X1974046Y957250D01*
X1976054Y958753D01*X1978135Y960154D01*X1980284Y961448D01*X1982495Y962633D01*
X1984763Y963706D01*X1987082Y964663D01*X1989446Y965503D01*X1991849Y966223D01*
X1994285Y966822D01*X1996748Y967298D01*X1999232Y967650D01*X2001730Y967877D01*
X2004237Y967978D01*X2006745Y967954D01*X2625000Y1048000D02*X2625000Y1210000D01*
X1505000Y968000D02*X1505000Y1208000D01*X1842000Y165000D02*X1842000Y140000D01*
X1842000Y165000D02*X2258000Y165000D01*X2258000Y165000D02*X2258000Y140000D01*
X2258000Y140000D02*X1842000Y140000D01*X1505000Y968000D02*X1935000Y968000D01*
X1505000Y1177500D02*X1505000Y1132500D01*X1505000Y1132500D02*X1505048Y1133480D01*
X1505192Y1134451D01*X1505431Y1135403D01*X1505761Y1136327D01*X1506181Y1137214D01*
X1506685Y1138056D01*X1507270Y1138844D01*X1507929Y1139571D01*X1508656Y1140230D01*
X1509444Y1140815D01*X1510286Y1141319D01*X1511173Y1141739D01*X1512097Y1142069D01*
X1513049Y1142308D01*X1514020Y1142452D01*X1515000Y1142500D01*X1515980Y1142452D01*
X1516951Y1142308D01*X1517903Y1142069D01*X1518827Y1141739D01*X1519714Y1141319D01*
X1520556Y1140815D01*X1521344Y1140230D01*X1522071Y1139571D01*X1522730Y1138844D01*
X1523315Y1138056D01*X1523819Y1137214D01*X1524239Y1136327D01*X1524569Y1135403D01*
X1524808Y1134451D01*X1524952Y1133480D01*X1525000Y1132500D01*X1525000Y1132500D02*
X1525000Y1177500D01*X1525000Y1177500D02*X1524952Y1176520D01*X1524808Y1175549D01*
X1524569Y1174597D01*X1524239Y1173673D01*X1523819Y1172786D01*X1523315Y1171944D01*
X1522730Y1171156D01*X1522071Y1170429D01*X1521344Y1169770D01*X1520556Y1169185D01*
X1519714Y1168681D01*X1518827Y1168261D01*X1517903Y1167931D01*X1516951Y1167692D01*
X1515980Y1167548D01*X1515000Y1167500D01*X1514020Y1167548D01*X1513049Y1167692D01*
X1512097Y1167931D01*X1511173Y1168261D01*X1510286Y1168681D01*X1509444Y1169185D01*
X1508656Y1169770D01*X1507929Y1170429D01*X1507270Y1171156D01*X1506685Y1171944D01*
X1506181Y1172786D01*X1505761Y1173673D01*X1505431Y1174597D01*X1505192Y1175549D01*
X1505048Y1176520D01*X1505000Y1177500D01*X1925000Y1048000D02*X1925000Y988000D01*
X1925000Y988000D02*X2531000Y988000D01*D02*G54D198*X1802000Y58000D03*
X1802000Y38000D03*X1802000Y18000D03*X2286000Y58000D03*X2286000Y38000D03*
X2286000Y18000D03*X1000000Y190000D03*X1802000Y78000D03*X2286000Y78000D03*
X3100000Y190000D03*X24000Y320000D03*X44000Y320000D03*X64000Y320000D03*
X84000Y320000D03*X1000000Y250000D03*X1000000Y230000D03*X1000000Y210000D03*
X3100000Y250000D03*X3100000Y230000D03*X3100000Y210000D03*X4010000Y320000D03*
X4030000Y320000D03*X4050000Y320000D03*X4070000Y320000D03*X1540000Y1070000D03*
X1540000Y1050000D03*X1540000Y1030000D03*X1540000Y1010000D03*X1540000Y1130000D03*
X1540000Y1150000D03*X1540000Y1170000D03*X1540000Y1190000D03*D02*G54D201*
X1912400Y18450D03*X2187550Y18450D03*X879250Y110000D03*X3220750Y110000D03*
X55000Y279750D03*X1064125Y225000D03*X3035875Y225000D03*X4045000Y279625D03*
X76750Y730000D03*X4023250Y730000D03*D02*G54D204*X741000Y23500D03*
X3399000Y23000D03*D02*G54D269*X3618500Y104000D03*X3643500Y104000D03*
X3663500Y104000D03*X3688500Y104000D03*X2498000Y344500D03*X2498000Y319500D03*
X2498000Y294500D03*X2498000Y369500D03*X2590000Y392600D03*X2590000Y418000D03*
X2590000Y443400D03*X1128100Y938000D03*X1153500Y938000D03*X1178900Y938000D03*
X2921100Y938000D03*X2946500Y938000D03*X2971900Y938000D03*D02*G54D300*
X3587841Y76901D03*X3719243Y76901D03*D02*G54D424*X742300Y510650D03*
X3363750Y682950D03*X3681300Y694050D03*X413200Y851350D03*X730750Y840250D03*
X3692300Y1008625D03*D02*G54D468*X420000Y110000D03*X1650000Y140000D03*
X2450000Y140000D03*X3750000Y210000D03*X3017000Y370000D03*X180000Y498000D03*
X1024000Y467000D03*X424700Y521750D03*X3673650Y531700D03*X725270Y997545D03*
X3374730Y997545D03*X45000Y1160000D03*X1058000Y1110000D03*X3042000Y1110000D03*
X4055000Y1160000D03*D02*G54D469*X165000Y8000D03*X3935000Y8000D03*
X741000Y183500D03*X3399000Y183000D03*X165000Y238000D03*X3935000Y238000D03*
D02*G54D470*X150000Y131000D03*X180000Y131000D03*X150000Y115000D03*
X180000Y115000D03*X706000Y111500D03*X736000Y111500D03*X706000Y95500D03*
X736000Y95500D03*X3364000Y111000D03*X3394000Y111000D03*X3364000Y95000D03*
X3394000Y95000D03*X3920000Y131000D03*X3950000Y131000D03*X3920000Y115000D03*
X3950000Y115000D03*X757000Y412000D03*X727000Y412000D03*X757000Y428000D03*
X727000Y428000D03*D02*G54D471*X839000Y78500D03*X839000Y128500D03*
X603000Y103500D03*X3261000Y103000D03*X3497000Y78000D03*X3497000Y128000D03*
X190000Y283000D03*X140000Y283000D03*X165000Y283000D03*X3960000Y283000D03*
X3910000Y283000D03*X3935000Y283000D03*D02*G54D472*X3204500Y438500D03*
X3188500Y438500D03*X3522000Y449500D03*X3506000Y449500D03*X3840000Y460000D03*
X3824000Y460000D03*X270500Y618500D03*X254500Y618500D03*X588500Y607500D03*
X572500Y607500D03*X905500Y596000D03*X889500Y596000D03*X3210000Y592000D03*
X3194000Y592000D03*X3527500Y607500D03*X3511500Y607500D03*X3844000Y616000D03*
X3828000Y616000D03*X265000Y776000D03*X249000Y776000D03*X583000Y764500D03*
X567000Y764500D03*X900000Y753500D03*X884000Y753500D03*X3215500Y753500D03*
X3199500Y753500D03*X3533000Y764500D03*X3517000Y764500D03*X3850000Y776000D03*
X3834000Y776000D03*X577500Y922000D03*X561500Y922000D03*X894500Y911000D03*
X878500Y911000D03*X3221000Y911000D03*X3205000Y911000D03*X3538500Y922000D03*
X3522500Y922000D03*X260000Y933000D03*X244000Y933000D03*X889500Y1068000D03*
X873500Y1068000D03*X3226500Y1068000D03*X3210500Y1068000D03*X3856500Y933000D03*
X3840500Y933000D03*X254000Y1090500D03*X238000Y1090500D03*X572000Y1079000D03*
X556000Y1079000D03*X3544000Y1079000D03*X3528000Y1079000D03*X3862000Y1090000D03*
X3846000Y1090000D03*X0Y0D02*D02*G54D473*X3150000Y368000D03*
X3240000Y368000D03*X3150000Y413000D03*X3240000Y413000D03*X3467500Y379000D03*
X3557500Y379000D03*X3467500Y424000D03*X3557500Y424000D03*X3785000Y390250D03*
X3875000Y390250D03*X3785000Y435250D03*X3875000Y435250D03*X219500Y547250D03*
X309500Y547250D03*X219500Y592250D03*X309500Y592250D03*X537250Y536500D03*
X627250Y536500D03*X537250Y581500D03*X627250Y581500D03*X854500Y525250D03*
X854500Y570250D03*X944500Y525250D03*X944500Y570250D03*X3155500Y525250D03*
X3245500Y525250D03*X3155500Y570250D03*X3245500Y570250D03*X3473250Y536250D03*
X3563250Y536250D03*X3473250Y581250D03*X3563250Y581250D03*X3790500Y547250D03*
X3880500Y547250D03*X3790500Y592250D03*X3880500Y592250D03*X214000Y704750D03*
X304000Y704750D03*X214000Y749750D03*X304000Y749750D03*X531500Y693500D03*
X621500Y693500D03*X531500Y738500D03*X621500Y738500D03*X849250Y682500D03*
X849250Y727500D03*X939250Y682500D03*X939250Y727500D03*X3161000Y682500D03*
X3251000Y682500D03*X3161000Y727500D03*X3251000Y727500D03*X3478500Y693500D03*
X3568500Y693500D03*X3478500Y738500D03*X3568500Y738500D03*X3796000Y704750D03*
X3886000Y704750D03*X3796000Y749750D03*X3886000Y749750D03*X208500Y862000D03*
X298500Y862000D03*X208500Y907000D03*X298500Y907000D03*X526000Y851000D03*
X616000Y851000D03*X526000Y896000D03*X616000Y896000D03*X843500Y839750D03*
X843500Y884750D03*X933500Y839750D03*X933500Y884750D03*X3166250Y839750D03*
X3256250Y839750D03*X3166250Y884750D03*X3256250Y884750D03*X3484000Y850750D03*
X3574000Y850750D03*X3484000Y895750D03*X3574000Y895750D03*X3801500Y861750D03*
X3891500Y861750D03*X3801500Y906750D03*X3891500Y906750D03*X203000Y1019000D03*
X293000Y1019000D03*X203000Y1064000D03*X293000Y1064000D03*X520500Y1008000D03*
X610500Y1008000D03*X520500Y1053000D03*X610500Y1053000D03*X838000Y997250D03*
X838000Y1042250D03*X928000Y997250D03*X928000Y1042250D03*X3172000Y997000D03*
X3262000Y997000D03*X3172000Y1042000D03*X3262000Y1042000D03*X3489500Y1008000D03*
X3579500Y1008000D03*X3489500Y1053000D03*X3579500Y1053000D03*X3807000Y1019250D03*
X3897000Y1019250D03*X3807000Y1064250D03*X3897000Y1064250D03*D02*G54D474*
X565000Y442750D03*X565000Y430250D03*X565000Y417750D03*X565000Y405250D03*
X2003000Y882750D03*X2003000Y870250D03*X2003000Y857750D03*X2003000Y845250D03*
D02*G54D475*X536000Y468250D03*X536000Y379750D03*X1974000Y908250D03*
X1974000Y819750D03*D02*G54D476*X1693750Y59000D03*X1706250Y59000D03*D02*
G54D477*X1668250Y30000D03*X1731750Y30000D03*D02*G54D478*X1450000Y923000D03*
X2650000Y923000D03*D02*G54D479*X1583000Y1055000D03*X1583000Y1025000D03*
X1567000Y1055000D03*X1567000Y1025000D03*X1567000Y1145000D03*X1567000Y1175000D03*
X1583000Y1145000D03*X1583000Y1175000D03*M02*
