%MOMM*%
%FSLAX34Y34*%
%ADD12R,0.8000000X1.2000000*%
%ADD24R,1.4000000X1.2000000*%
%ADD25C,0.1000000*%
%ADD127R,2.0000000X0.7500000*%
%ADD128R,2.0000000X0.2500000*%
%ADD129R,0.9000000X0.8000000*%
%ADD130R,0.8000000X0.9000000*%
%ADD131R,1.2000000X0.8000000*%
%ADD132R,0.2500000X0.5000000*%
%ADD135C,0.3000000*%
%ADD147R,0.3000000X0.9000000*%
%ADD148R,0.9000000X0.3000000*%
%ADD213R,2.0000000X1.5000000*%
%ADD215R,1.0000000X0.6000000*%
%ADD216R,0.9000000X1.2000000*%
%ADD217R,0.6000000X1.0000000*%
%ADD221R,4.2000000X1.4000000*%
%ADD222R,3.0000000X1.6000000*%
%ADD223R,2.5000000X2.2000000*%
%ADD228R,0.4000000X1.1000000*%
%ADD229R,1.1000000X0.4000000*%
%ADD237R,0.8000000X1.9000000*%
%ADD239R,0.4000000X1.5000000*%
%ADD240R,1.7800000X0.7200000*%
%ADD242R,0.5000000X0.2500000*%
%ADD244R,0.2000000X1.1000000*%
%ADD245R,1.1000000X0.2000000*%
%ADD246R,2.6000000X1.5000000*%
%ADD247R,0.7200000X1.7800000*%
%ADD256R,1.6000000X1.6000000*%
%ADD257R,1.2000000X0.9000000*%
%ADD405R,0.2500000X1.1000000*%
%ADD406R,1.1000000X0.2500000*%
%ADD407R,0.6000000X1.2000000*%
%ADD422R,0.9906000X3.3020000*%
%ADD436R,0.8000000X0.6000000*%
%ADD437R,0.6000000X0.8000000*%
%ADD438R,1.6000000X0.8000000*%
%ADD439R,3.0000000X2.1000000*%
%ADD440R,0.4000000X1.3000000*%
%ADD441R,1.2000000X0.2500000*%
%ADD442R,1.0000000X2.0000000*%
%ADD443R,2.0000000X1.0000000*%
%ADD444R,0.3000000X1.5000000*%
%ADD445R,2.0000000X3.0000000*%
%ADD446R,0.2500000X1.2500000*%
%ADD447R,3.3020000X0.9906000*%
%ADD448R,3.7000000X2.6000000*%
%ADD449R,3.6500000X1.0000000*%
G90*G71*G01*D02*G54D12*X2346000Y1114000D03*X2330000Y1114000D03*D02*G54D24*
X2401000Y393500D03*X2401000Y410500D03*X2423000Y393500D03*X2423000Y410500D03*
D02*G54D25*X1532175Y1282000D02*X1545708Y1300000D01*X1497824Y1282000D02*
X1484292Y1300000D01*X2532175Y1282000D02*X2545708Y1300000D01*X2497824Y1282000D02*
X2484292Y1300000D01*X2484292Y1300000D02*X1545708Y1300000D01*X2532175Y1282000D02*
X2497824Y1282000D01*X1484292Y1300000D02*X10000Y1300000D01*X1497824Y1282000D02*
X1532175Y1282000D01*X0Y10000D02*X0Y1290000D01*X0Y1290000D02*
X12Y1290491D01*X48Y1290980D01*X108Y1291467D01*X192Y1291951D01*
X300Y1292430D01*X431Y1292903D01*X585Y1293369D01*X761Y1293827D01*
X960Y1294276D01*X1181Y1294714D01*X1423Y1295141D01*X1685Y1295556D01*
X1968Y1295957D01*X2270Y1296344D01*X2591Y1296716D01*X2929Y1297071D01*
X3284Y1297410D01*X3656Y1297730D01*X4043Y1298032D01*X4444Y1298315D01*
X4859Y1298577D01*X5286Y1298819D01*X5724Y1299040D01*X6173Y1299239D01*
X6631Y1299415D01*X7097Y1299569D01*X7570Y1299700D01*X8049Y1299808D01*
X8533Y1299892D01*X9020Y1299952D01*X9509Y1299988D01*X10000Y1300000D01*
X2640000Y1300000D02*X2545708Y1300000D01*X2640000Y1300000D02*X2640491Y1299988D01*
X2640980Y1299952D01*X2641467Y1299892D01*X2641951Y1299808D01*X2642430Y1299700D01*
X2642903Y1299569D01*X2643369Y1299415D01*X2643827Y1299239D01*X2644276Y1299040D01*
X2644714Y1298819D01*X2645141Y1298577D01*X2645556Y1298315D01*X2645957Y1298032D01*
X2646344Y1297730D01*X2646716Y1297410D01*X2647071Y1297071D01*X2647410Y1296716D01*
X2647730Y1296344D01*X2648032Y1295957D01*X2648315Y1295556D01*X2648577Y1295141D01*
X2648819Y1294714D01*X2649040Y1294276D01*X2649239Y1293827D01*X2649415Y1293369D01*
X2649569Y1292903D01*X2649700Y1292430D01*X2649808Y1291951D01*X2649892Y1291467D01*
X2649952Y1290980D01*X2649988Y1290491D01*X2650000Y1290000D01*X10000Y0D02*
X2640000Y0D01*X2650000Y1290000D02*X2650000Y10000D01*X2650000Y10000D02*
X2649988Y9509D01*X2649952Y9020D01*X2649892Y8533D01*X2649808Y8049D01*
X2649700Y7570D01*X2649569Y7097D01*X2649415Y6631D01*X2649239Y6173D01*
X2649040Y5724D01*X2648819Y5286D01*X2648577Y4859D01*X2648315Y4444D01*
X2648032Y4043D01*X2647730Y3656D01*X2647410Y3284D01*X2647071Y2929D01*
X2646716Y2591D01*X2646344Y2270D01*X2645957Y1968D01*X2645556Y1685D01*
X2645141Y1423D01*X2644714Y1181D01*X2644276Y960D01*X2643827Y761D01*
X2643369Y585D01*X2642903Y431D01*X2642430Y300D01*X2641951Y192D01*
X2641467Y108D01*X2640980Y48D01*X2640491Y12D01*X2640000Y0D01*
X10000Y0D02*X9509Y12D01*X9020Y48D01*X8533Y108D01*
X8049Y192D01*X7570Y300D01*X7097Y431D01*X6631Y585D01*
X6173Y761D01*X5724Y960D01*X5286Y1181D01*X4859Y1423D01*
X4444Y1685D01*X4043Y1968D01*X3656Y2270D01*X3284Y2591D01*
X2929Y2929D01*X2591Y3284D01*X2270Y3656D01*X1968Y4043D01*
X1685Y4444D01*X1423Y4859D01*X1181Y5286D01*X960Y5724D01*
X761Y6173D01*X585Y6631D01*X431Y7097D01*X300Y7570D01*
X192Y8049D01*X108Y8533D01*X48Y9020D01*X12Y9509D01*
X0Y10000D01*D02*G54D127*X1090000Y660000D03*X1130000Y660000D03*
X1740000Y660000D03*X1780000Y660000D03*X1090000Y910000D03*X1130000Y910000D03*
X1740000Y910000D03*X1780000Y910000D03*D02*G54D128*X1090000Y667500D03*
X1090000Y672500D03*X1090000Y677500D03*X1090000Y682500D03*X1090000Y687500D03*
X1090000Y692500D03*X1090000Y697500D03*X1090000Y702500D03*X1090000Y707500D03*
X1090000Y712500D03*X1090000Y717500D03*X1090000Y722500D03*X1090000Y727500D03*
X1090000Y732500D03*X1090000Y737500D03*X1090000Y742500D03*X1090000Y747500D03*
X1130000Y667500D03*X1130000Y672500D03*X1130000Y677500D03*X1130000Y682500D03*
X1130000Y687500D03*X1130000Y692500D03*X1130000Y697500D03*X1130000Y702500D03*
X1130000Y707500D03*X1130000Y712500D03*X1130000Y717500D03*X1130000Y722500D03*
X1130000Y727500D03*X1130000Y732500D03*X1130000Y737500D03*X1130000Y742500D03*
X1130000Y747500D03*X1740000Y667500D03*X1740000Y672500D03*X1740000Y677500D03*
X1740000Y682500D03*X1740000Y687500D03*X1740000Y692500D03*X1740000Y697500D03*
X1740000Y702500D03*X1740000Y707500D03*X1740000Y712500D03*X1740000Y717500D03*
X1740000Y722500D03*X1740000Y727500D03*X1740000Y732500D03*X1740000Y737500D03*
X1740000Y742500D03*X1740000Y747500D03*X1780000Y667500D03*X1780000Y672500D03*
X1780000Y677500D03*X1780000Y682500D03*X1780000Y687500D03*X1780000Y692500D03*
X1780000Y697500D03*X1780000Y702500D03*X1780000Y707500D03*X1780000Y712500D03*
X1780000Y717500D03*X1780000Y722500D03*X1780000Y727500D03*X1780000Y732500D03*
X1780000Y737500D03*X1780000Y742500D03*X1780000Y747500D03*X1090000Y752500D03*
X1090000Y757500D03*X1090000Y762500D03*X1090000Y767500D03*X1090000Y772500D03*
X1090000Y777500D03*X1090000Y782500D03*X1090000Y787500D03*X1090000Y792500D03*
X1090000Y797500D03*X1090000Y802500D03*X1090000Y807500D03*X1090000Y812500D03*
X1090000Y817500D03*X1090000Y822500D03*X1090000Y827500D03*X1090000Y832500D03*
X1090000Y837500D03*X1090000Y842500D03*X1090000Y847500D03*X1090000Y852500D03*
X1090000Y857500D03*X1090000Y862500D03*X1090000Y867500D03*X1090000Y872500D03*
X1090000Y877500D03*X1090000Y882500D03*X1090000Y887500D03*X1090000Y892500D03*
X1090000Y897500D03*X1090000Y902500D03*X1130000Y802500D03*X1130000Y807500D03*
X1130000Y812500D03*X1130000Y817500D03*X1130000Y822500D03*X1130000Y827500D03*
X1130000Y832500D03*X1130000Y837500D03*X1130000Y842500D03*X1130000Y847500D03*
X1130000Y852500D03*X1130000Y857500D03*X1130000Y862500D03*X1130000Y867500D03*
X1130000Y872500D03*X1130000Y877500D03*X1130000Y882500D03*X1130000Y887500D03*
X1130000Y892500D03*X1130000Y897500D03*X1130000Y902500D03*X1130000Y752500D03*
X1130000Y757500D03*X1130000Y762500D03*X1130000Y767500D03*X1130000Y772500D03*
X1130000Y777500D03*X1130000Y782500D03*X1130000Y787500D03*X1130000Y792500D03*
X1130000Y797500D03*X1740000Y752500D03*X1740000Y757500D03*X1740000Y762500D03*
X1740000Y767500D03*X1740000Y772500D03*X1740000Y777500D03*X1740000Y782500D03*
X1740000Y787500D03*X1740000Y792500D03*X1740000Y797500D03*X1740000Y802500D03*
X1740000Y807500D03*X1740000Y812500D03*X1740000Y817500D03*X1740000Y822500D03*
X1740000Y827500D03*X1740000Y832500D03*X1740000Y837500D03*X1740000Y842500D03*
X1740000Y847500D03*X1740000Y852500D03*X1740000Y857500D03*X1740000Y862500D03*
X1740000Y867500D03*X1740000Y872500D03*X1740000Y877500D03*X1740000Y882500D03*
X1740000Y887500D03*X1740000Y892500D03*X1740000Y897500D03*X1740000Y902500D03*
X1780000Y802500D03*X1780000Y807500D03*X1780000Y812500D03*X1780000Y817500D03*
X1780000Y822500D03*X1780000Y827500D03*X1780000Y832500D03*X1780000Y837500D03*
X1780000Y842500D03*X1780000Y847500D03*X1780000Y852500D03*X1780000Y857500D03*
X1780000Y862500D03*X1780000Y867500D03*X1780000Y872500D03*X1780000Y877500D03*
X1780000Y882500D03*X1780000Y887500D03*X1780000Y892500D03*X1780000Y897500D03*
X1780000Y902500D03*X1780000Y752500D03*X1780000Y757500D03*X1780000Y762500D03*
X1780000Y767500D03*X1780000Y772500D03*X1780000Y777500D03*X1780000Y782500D03*
X1780000Y787500D03*X1780000Y792500D03*X1780000Y797500D03*D02*G54D129*
X818000Y347500D03*X818000Y328500D03*X838000Y338000D03*X2314000Y745500D03*
X2314000Y726500D03*X2334000Y736000D03*X2006000Y761500D03*X2006000Y780500D03*
X1986000Y771000D03*X2018000Y962500D03*X2018000Y981500D03*X1998000Y972000D03*
X2366000Y949500D03*X2366000Y930500D03*X2386000Y940000D03*D02*G54D130*
X614500Y250000D03*X633500Y250000D03*X624000Y270000D03*X1093500Y272000D03*
X1074500Y272000D03*X1084000Y252000D03*X1045500Y272000D03*X1026500Y272000D03*
X1036000Y252000D03*X1174500Y272000D03*X1184000Y252000D03*X1193500Y272000D03*
X2221500Y348000D03*X2202500Y348000D03*X2212000Y328000D03*X2449500Y334000D03*
X2430500Y334000D03*X2440000Y314000D03*X2328500Y1132000D03*X2347500Y1132000D03*
X2338000Y1152000D03*D02*G54D131*X222000Y590000D03*X222000Y606000D03*D02*
G54D132*X233500Y865000D03*X228500Y865000D03*X223500Y865000D03*
X218500Y865000D03*X218500Y855000D03*X223500Y855000D03*X228500Y855000D03*
X233500Y855000D03*X259500Y865000D03*X254500Y865000D03*X249500Y865000D03*
X244500Y865000D03*X244500Y855000D03*X249500Y855000D03*X254500Y855000D03*
X259500Y855000D03*X270500Y865000D03*X270500Y855000D03*X311500Y865000D03*
X306500Y865000D03*X301500Y865000D03*X296500Y865000D03*X296500Y855000D03*
X301500Y855000D03*X306500Y855000D03*X311500Y855000D03*X337500Y865000D03*
X332500Y865000D03*X327500Y865000D03*X322500Y865000D03*X322500Y855000D03*
X327500Y855000D03*X332500Y855000D03*X337500Y855000D03*X363500Y865000D03*
X358500Y865000D03*X353500Y865000D03*X348500Y865000D03*X348500Y855000D03*
X353500Y855000D03*X358500Y855000D03*X363500Y855000D03*X285500Y865000D03*
X280500Y865000D03*X275500Y865000D03*X275500Y855000D03*X280500Y855000D03*
X285500Y855000D03*D02*G54D135*X2375250Y389250D03*X2375250Y382750D03*
X2375250Y376250D03*X2375250Y369750D03*X2375250Y363250D03*X2375250Y356750D03*
X2375250Y350250D03*X2375250Y343750D03*X2375250Y337250D03*X2375250Y330750D03*
X2368750Y389250D03*X2368750Y382750D03*X2368750Y376250D03*X2368750Y369750D03*
X2368750Y363250D03*X2368750Y356750D03*X2368750Y350250D03*X2368750Y343750D03*
X2368750Y337250D03*X2368750Y330750D03*X2362250Y389250D03*X2362250Y382750D03*
X2362250Y337250D03*X2362250Y330750D03*X2355750Y389250D03*X2355750Y382750D03*
X2355750Y369750D03*X2355750Y363250D03*X2355750Y356750D03*X2355750Y350250D03*
X2355750Y337250D03*X2355750Y330750D03*X2349250Y389250D03*X2349250Y382750D03*
X2349250Y369750D03*X2349250Y363250D03*X2349250Y356750D03*X2349250Y350250D03*
X2349250Y337250D03*X2349250Y330750D03*X2342750Y389250D03*X2342750Y382750D03*
X2342750Y369750D03*X2342750Y363250D03*X2342750Y356750D03*X2342750Y350250D03*
X2342750Y337250D03*X2342750Y330750D03*X2336250Y389250D03*X2336250Y382750D03*
X2336250Y369750D03*X2336250Y363250D03*X2336250Y356750D03*X2336250Y350250D03*
X2336250Y337250D03*X2336250Y330750D03*X2329750Y389250D03*X2329750Y382750D03*
X2329750Y337250D03*X2329750Y330750D03*X2323250Y389250D03*X2323250Y382750D03*
X2323250Y376250D03*X2323250Y369750D03*X2323250Y363250D03*X2323250Y356750D03*
X2323250Y350250D03*X2323250Y343750D03*X2323250Y337250D03*X2323250Y330750D03*
X2316750Y389250D03*X2316750Y382750D03*X2316750Y376250D03*X2316750Y369750D03*
X2316750Y363250D03*X2316750Y356750D03*X2316750Y350250D03*X2316750Y343750D03*
X2316750Y337250D03*X2316750Y330750D03*D02*G54D147*X515250Y705000D03*
X521750Y705000D03*X528250Y705000D03*X534750Y705000D03*X541250Y705000D03*
X547750Y705000D03*X554250Y705000D03*X560750Y705000D03*X660750Y705000D03*
X667250Y705000D03*X673750Y705000D03*X680250Y705000D03*X686750Y705000D03*
X693250Y705000D03*X699750Y705000D03*X706250Y705000D03*X712750Y705000D03*
X719250Y705000D03*X617750Y705000D03*X611250Y705000D03*X604750Y705000D03*
X598250Y705000D03*X883250Y525000D03*X889750Y525000D03*X896250Y525000D03*
X902750Y525000D03*X909250Y525000D03*X915750Y525000D03*X922250Y525000D03*
X928750Y525000D03*X928750Y587000D03*X922250Y587000D03*X915750Y587000D03*
X909250Y587000D03*X902750Y587000D03*X896250Y587000D03*X889750Y587000D03*
X883250Y587000D03*X560750Y767000D03*X554250Y767000D03*X547750Y767000D03*
X541250Y767000D03*X534750Y767000D03*X528250Y767000D03*X521750Y767000D03*
X515250Y767000D03*X660750Y767000D03*X667250Y767000D03*X673750Y767000D03*
X680250Y767000D03*X686750Y767000D03*X693250Y767000D03*X699750Y767000D03*
X706250Y767000D03*X712750Y767000D03*X719250Y767000D03*X598250Y767000D03*
X604750Y767000D03*X611250Y767000D03*X617750Y767000D03*D02*G54D148*
X233000Y440250D03*X233000Y446750D03*X233000Y453250D03*X233000Y459750D03*
X295000Y459750D03*X295000Y453250D03*X295000Y446750D03*X295000Y440250D03*
X1869050Y735750D03*X1869050Y729248D03*X1869050Y722745D03*X1869050Y716243D03*
X1930950Y716243D03*X1930950Y722745D03*X1930950Y735750D03*X1930950Y729248D03*
D02*G54D213*X2184000Y12000D03*X2256000Y12000D03*X2256000Y45000D03*
X2184000Y82000D03*X2256000Y100000D03*D02*G54D215*X2092000Y198500D03*
X2068000Y198500D03*X2034000Y198500D03*X2010000Y198500D03*X1424000Y252500D03*
X1424000Y262000D03*X1424000Y271500D03*X1400000Y271500D03*X1400000Y262000D03*
X1400000Y252500D03*X1686000Y393500D03*X1686000Y384000D03*X1686000Y374500D03*
X1710000Y374500D03*X1710000Y384000D03*X1710000Y393500D03*X1734000Y393500D03*
X1734000Y384000D03*X1734000Y374500D03*X1758000Y374500D03*X1758000Y384000D03*
X1758000Y393500D03*X1782000Y393500D03*X1782000Y384000D03*X1782000Y374500D03*
X2092000Y208000D03*X2092000Y217500D03*X2068000Y217500D03*X2068000Y208000D03*
X2034000Y208000D03*X2034000Y217500D03*X2010000Y217500D03*X2010000Y208000D03*
X1806000Y374500D03*X1806000Y384000D03*X1806000Y393500D03*X1832000Y393500D03*
X1832000Y384000D03*X1832000Y374500D03*X1856000Y374500D03*X1856000Y384000D03*
X1856000Y393500D03*X1934000Y380500D03*X1934000Y390000D03*X1934000Y399500D03*
X1910000Y399500D03*X1910000Y380500D03*X1934000Y286500D03*X1934000Y296000D03*
X1934000Y305500D03*X1910000Y305500D03*X1910000Y286500D03*X106000Y615500D03*
X106000Y625000D03*X106000Y634500D03*X82000Y634500D03*X82000Y625000D03*
X82000Y615500D03*X152000Y554500D03*X152000Y573500D03*X176000Y573500D03*
X176000Y564000D03*X176000Y554500D03*X2090000Y957500D03*X2090000Y948000D03*
X2090000Y938500D03*X2114000Y938500D03*X2114000Y957500D03*X1570000Y1113500D03*
X1570000Y1123000D03*X1570000Y1132500D03*X1546000Y1132500D03*X1546000Y1123000D03*
X1546000Y1113500D03*X1546000Y1152500D03*X1546000Y1162000D03*X1546000Y1171500D03*
X1522000Y1171500D03*X1522000Y1162000D03*X1522000Y1152500D03*D02*G54D216*
X2015000Y253500D03*X2015000Y290500D03*X1993000Y290500D03*X1993000Y253500D03*
X121000Y691500D03*X121000Y728500D03*X99000Y728500D03*X99000Y691500D03*
X2018500Y736000D03*X1985500Y736000D03*X741000Y1007500D03*X763000Y1007500D03*
X2380500Y1006000D03*X2347500Y1006000D03*X2511500Y896000D03*X2478500Y896000D03*
X741000Y1044500D03*X763000Y1044500D03*X2019500Y1076000D03*X2052500Y1076000D03*
X2382500Y1030000D03*X2349500Y1030000D03*D02*G54D217*X2539500Y710000D03*
X2530000Y710000D03*X2520500Y710000D03*X2520500Y686000D03*X2530000Y686000D03*
X2539500Y686000D03*D02*G54D221*X222000Y560500D03*X222000Y523500D03*D02*
G54D222*X2362000Y736000D03*X2442000Y736000D03*D02*G54D223*X128500Y524000D03*
X175500Y524000D03*D02*G54D228*X2430000Y1004000D03*X2438000Y1004000D03*
X2446000Y1004000D03*X2454000Y1004000D03*X2462000Y1004000D03*X2470000Y1004000D03*
X2478000Y1004000D03*X2486000Y1004000D03*X2486000Y916000D03*X2478000Y916000D03*
X2470000Y916000D03*X2462000Y916000D03*X2454000Y916000D03*X2446000Y916000D03*
X2438000Y916000D03*X2430000Y916000D03*D02*G54D229*X2414000Y932000D03*
X2414000Y940000D03*X2414000Y948000D03*X2414000Y956000D03*X2414000Y964000D03*
X2414000Y972000D03*X2414000Y980000D03*X2414000Y988000D03*X2502000Y988000D03*
X2502000Y980000D03*X2502000Y972000D03*X2502000Y964000D03*X2502000Y956000D03*
X2502000Y948000D03*X2502000Y940000D03*X2502000Y932000D03*D02*G54D237*
X1799750Y197000D03*X1787050Y197000D03*X1774350Y197000D03*X1761650Y197000D03*
X1748950Y197000D03*X1736250Y197000D03*X1723550Y197000D03*X1710850Y197000D03*
X1698150Y197000D03*X1837850Y197000D03*X1825150Y197000D03*X1812450Y197000D03*
X1799750Y343000D03*X1787050Y343000D03*X1774350Y343000D03*X1761650Y343000D03*
X1748950Y343000D03*X1736250Y343000D03*X1723550Y343000D03*X1710850Y343000D03*
X1698150Y343000D03*X1837850Y343000D03*X1825150Y343000D03*X1812450Y343000D03*
D02*G54D239*X2036725Y293000D03*X2043075Y293000D03*X2049425Y293000D03*
X2055775Y293000D03*X2062125Y293000D03*X2068475Y293000D03*X2074825Y293000D03*
X2081175Y293000D03*X2087525Y293000D03*X2093875Y293000D03*X2100225Y293000D03*
X2036725Y347000D03*X2043075Y347000D03*X2049425Y347000D03*X2055775Y347000D03*
X2062125Y347000D03*X2068475Y347000D03*X2074825Y347000D03*X2081175Y347000D03*
X2087525Y347000D03*X2093875Y347000D03*X2100225Y347000D03*X2106575Y293000D03*
X2112925Y293000D03*X2119275Y293000D03*X2106575Y347000D03*X2112925Y347000D03*
X2119275Y347000D03*D02*G54D240*X862600Y261550D03*X862600Y274250D03*
X862600Y286950D03*X862600Y299650D03*X862600Y312350D03*X862600Y325050D03*
X862600Y337750D03*X862600Y350450D03*X913400Y350450D03*X913400Y337750D03*
X913400Y325050D03*X913400Y312350D03*X913400Y299650D03*X913400Y286950D03*
X913400Y274250D03*X913400Y261550D03*X2473400Y252950D03*X2473400Y265650D03*
X2473400Y278350D03*X2473400Y291050D03*X2422600Y291050D03*X2422600Y278350D03*
X2422600Y265650D03*X2422600Y252950D03*X707400Y535050D03*X707400Y522350D03*
X707400Y509650D03*X707400Y496950D03*X656600Y496950D03*X656600Y509650D03*
X656600Y522350D03*X656600Y535050D03*D02*G54D242*X158000Y745500D03*
X158000Y740500D03*X168000Y740500D03*X168000Y745500D03*X158000Y755500D03*
X158000Y750500D03*X168000Y750500D03*X168000Y755500D03*X158000Y778500D03*
X158000Y773500D03*X158000Y768500D03*X158000Y763500D03*X168000Y763500D03*
X168000Y768500D03*X168000Y773500D03*X168000Y778500D03*X393000Y802000D03*
X393000Y807000D03*X393000Y812000D03*X393000Y817000D03*X383000Y817000D03*
X383000Y812000D03*X383000Y807000D03*X383000Y802000D03*X393000Y760000D03*
X393000Y765000D03*X393000Y770000D03*X393000Y775000D03*X383000Y775000D03*
X383000Y770000D03*X383000Y765000D03*X383000Y760000D03*D02*G54D244*
X268000Y671000D03*X264000Y671000D03*X260000Y671000D03*X256000Y671000D03*
X252000Y671000D03*X248000Y671000D03*X244000Y671000D03*X240000Y671000D03*
X236000Y671000D03*X232000Y671000D03*X228000Y671000D03*X224000Y671000D03*
X220000Y671000D03*X344000Y671000D03*X340000Y671000D03*X336000Y671000D03*
X332000Y671000D03*X328000Y671000D03*X324000Y671000D03*X320000Y671000D03*
X316000Y671000D03*X312000Y671000D03*X308000Y671000D03*X304000Y671000D03*
X300000Y671000D03*X296000Y671000D03*X292000Y671000D03*X288000Y671000D03*
X284000Y671000D03*X280000Y671000D03*X276000Y671000D03*X272000Y671000D03*
X268000Y829000D03*X264000Y829000D03*X260000Y829000D03*X256000Y829000D03*
X252000Y829000D03*X248000Y829000D03*X244000Y829000D03*X240000Y829000D03*
X236000Y829000D03*X232000Y829000D03*X228000Y829000D03*X224000Y829000D03*
X220000Y829000D03*X344000Y829000D03*X340000Y829000D03*X336000Y829000D03*
X332000Y829000D03*X328000Y829000D03*X324000Y829000D03*X320000Y829000D03*
X316000Y829000D03*X312000Y829000D03*X308000Y829000D03*X304000Y829000D03*
X300000Y829000D03*X296000Y829000D03*X292000Y829000D03*X288000Y829000D03*
X284000Y829000D03*X280000Y829000D03*X276000Y829000D03*X272000Y829000D03*
D02*G54D245*X203000Y688000D03*X203000Y692000D03*X203000Y696000D03*
X203000Y700000D03*X203000Y704000D03*X203000Y708000D03*X203000Y712000D03*
X203000Y716000D03*X203000Y720000D03*X203000Y724000D03*X203000Y728000D03*
X203000Y732000D03*X203000Y736000D03*X203000Y740000D03*X203000Y744000D03*
X203000Y748000D03*X361000Y688000D03*X361000Y692000D03*X361000Y696000D03*
X361000Y700000D03*X361000Y704000D03*X361000Y708000D03*X361000Y712000D03*
X361000Y716000D03*X361000Y720000D03*X361000Y724000D03*X361000Y728000D03*
X361000Y732000D03*X361000Y736000D03*X361000Y740000D03*X361000Y744000D03*
X361000Y748000D03*X203000Y752000D03*X203000Y756000D03*X203000Y760000D03*
X203000Y764000D03*X203000Y768000D03*X203000Y772000D03*X203000Y776000D03*
X203000Y780000D03*X203000Y784000D03*X203000Y788000D03*X203000Y792000D03*
X203000Y796000D03*X203000Y800000D03*X203000Y804000D03*X203000Y808000D03*
X203000Y812000D03*X361000Y752000D03*X361000Y756000D03*X361000Y760000D03*
X361000Y764000D03*X361000Y768000D03*X361000Y772000D03*X361000Y776000D03*
X361000Y780000D03*X361000Y784000D03*X361000Y788000D03*X361000Y792000D03*
X361000Y796000D03*X361000Y800000D03*X361000Y804000D03*X361000Y808000D03*
X361000Y812000D03*D02*G54D246*X2187000Y105000D03*D02*G54D247*
X625050Y418600D03*X612350Y418600D03*X599650Y418600D03*X586950Y418600D03*
X586950Y469400D03*X599650Y469400D03*X612350Y469400D03*X625050Y469400D03*
X795050Y420600D03*X782350Y420600D03*X769650Y420600D03*X756950Y420600D03*
X756950Y471400D03*X769650Y471400D03*X782350Y471400D03*X795050Y471400D03*
X740450Y294600D03*X727750Y294600D03*X715050Y294600D03*X702350Y294600D03*
X689650Y294600D03*X676950Y294600D03*X664250Y294600D03*X651550Y294600D03*
X651550Y345400D03*X664250Y345400D03*X676950Y345400D03*X689650Y345400D03*
X702350Y345400D03*X715050Y345400D03*X727750Y345400D03*X740450Y345400D03*
D02*G54D256*X804000Y838000D03*X724000Y838000D03*D02*G54D257*
X2044000Y957500D03*X2044000Y990500D03*D02*G54D405*X880500Y1005500D03*
X875500Y1005500D03*X870500Y1005500D03*X865500Y1005500D03*X860500Y1005500D03*
X855500Y1005500D03*X850500Y1005500D03*X845500Y1005500D03*X840500Y1005500D03*
X835500Y1005500D03*X830500Y1005500D03*X880500Y918500D03*X875500Y918500D03*
X870500Y918500D03*X865500Y918500D03*X860500Y918500D03*X855500Y918500D03*
X850500Y918500D03*X845500Y918500D03*X840500Y918500D03*X835500Y918500D03*
X830500Y918500D03*X885500Y1005500D03*X885500Y918500D03*D02*G54D406*
X814500Y934500D03*X814500Y939500D03*X814500Y944500D03*X814500Y949500D03*
X814500Y954500D03*X814500Y959500D03*X814500Y964500D03*X814500Y969500D03*
X814500Y974500D03*X814500Y979500D03*X814500Y984500D03*X814500Y989500D03*
X901500Y934500D03*X901500Y939500D03*X901500Y944500D03*X901500Y949500D03*
X901500Y954500D03*X901500Y959500D03*X901500Y964500D03*X901500Y969500D03*
X901500Y974500D03*X901500Y979500D03*X901500Y984500D03*X901500Y989500D03*
D02*G54D407*X1852500Y758500D03*X1843500Y821500D03*X1843500Y758500D03*
X1852500Y821500D03*D02*G54D422*X764000Y714500D03*X983000Y581500D03*
X983000Y530500D03*X764000Y765500D03*D02*G54D436*X158000Y456000D03*
X158000Y440000D03*X158000Y390000D03*X158000Y374000D03*X172000Y390000D03*
X172000Y374000D03*X130000Y422000D03*X130000Y406000D03*X172000Y422000D03*
X172000Y406000D03*X200000Y440000D03*X200000Y456000D03*X144000Y440000D03*
X144000Y456000D03*X144000Y374000D03*X144000Y390000D03*X186000Y374000D03*
X186000Y390000D03*X200000Y406000D03*X200000Y422000D03*X130000Y440000D03*
X130000Y456000D03*X172000Y440000D03*X172000Y456000D03*X130000Y390000D03*
X130000Y374000D03*X186000Y440000D03*X186000Y456000D03*X200000Y390000D03*
X200000Y374000D03*X368000Y456000D03*X368000Y440000D03*X382000Y390000D03*
X382000Y374000D03*X396000Y390000D03*X396000Y374000D03*X354000Y422000D03*
X354000Y406000D03*X396000Y422000D03*X396000Y406000D03*X326000Y456000D03*
X326000Y440000D03*X382000Y440000D03*X382000Y456000D03*X368000Y374000D03*
X368000Y390000D03*X410000Y374000D03*X410000Y390000D03*X326000Y406000D03*
X326000Y422000D03*X354000Y440000D03*X354000Y456000D03*X396000Y440000D03*
X396000Y456000D03*X354000Y390000D03*X354000Y374000D03*X340000Y440000D03*
X340000Y456000D03*X422000Y390000D03*X422000Y374000D03*X586000Y382000D03*
X586000Y398000D03*X756000Y384000D03*X756000Y400000D03*X612000Y382000D03*
X612000Y398000D03*X770000Y384000D03*X770000Y400000D03*X836000Y270000D03*
X836000Y254000D03*X676000Y270000D03*X676000Y254000D03*X762000Y270000D03*
X762000Y254000D03*X652000Y270000D03*X652000Y254000D03*X586000Y350000D03*
X586000Y366000D03*X742000Y400000D03*X742000Y384000D03*X586000Y320000D03*
X586000Y304000D03*X612000Y366000D03*X612000Y350000D03*X728000Y400000D03*
X728000Y384000D03*X784000Y384000D03*X784000Y400000D03*X836000Y286000D03*
X836000Y302000D03*X880000Y460000D03*X880000Y444000D03*X880000Y390000D03*
X880000Y374000D03*X704000Y270000D03*X704000Y254000D03*X790000Y270000D03*
X790000Y254000D03*X880000Y402000D03*X880000Y418000D03*X690000Y254000D03*
X690000Y270000D03*X776000Y254000D03*X776000Y270000D03*X936000Y296000D03*
X936000Y280000D03*X894000Y460000D03*X894000Y444000D03*X894000Y390000D03*
X894000Y374000D03*X894000Y402000D03*X894000Y418000D03*X1492000Y396000D03*
X1492000Y412000D03*X1476000Y412000D03*X1476000Y396000D03*X1444000Y412000D03*
X1444000Y396000D03*X1460000Y396000D03*X1460000Y412000D03*X1406000Y220000D03*
X1406000Y236000D03*X1422000Y220000D03*X1422000Y236000D03*X1800000Y430000D03*
X1800000Y414000D03*X1788000Y430000D03*X1788000Y414000D03*X1752000Y430000D03*
X1752000Y414000D03*X1740000Y430000D03*X1740000Y414000D03*X1706000Y430000D03*
X1706000Y414000D03*X1694000Y430000D03*X1694000Y414000D03*X2078000Y240000D03*
X2078000Y256000D03*X2090000Y240000D03*X2090000Y256000D03*X2044000Y240000D03*
X2044000Y256000D03*X2056000Y240000D03*X2056000Y256000D03*X1998000Y354000D03*
X1998000Y338000D03*X2011000Y354000D03*X2011000Y338000D03*X1850000Y430000D03*
X1850000Y414000D03*X1838000Y430000D03*X1838000Y414000D03*X2226000Y298000D03*
X2226000Y314000D03*X2198000Y298000D03*X2198000Y314000D03*X2212000Y298000D03*
X2212000Y314000D03*X2374000Y264000D03*X2374000Y280000D03*X2362000Y264000D03*
X2362000Y280000D03*X2356000Y226000D03*X2356000Y242000D03*X2344000Y226000D03*
X2344000Y242000D03*X2340000Y264000D03*X2340000Y280000D03*X2328000Y264000D03*
X2328000Y280000D03*X2322000Y226000D03*X2322000Y242000D03*X2310000Y226000D03*
X2310000Y242000D03*X2392000Y451000D03*X2392000Y435000D03*X2368000Y451000D03*
X2368000Y435000D03*X2380000Y451000D03*X2380000Y435000D03*X2356000Y451000D03*
X2356000Y435000D03*X2467000Y360000D03*X2467000Y344000D03*X2467000Y334000D03*
X2467000Y318000D03*X216000Y636000D03*X216000Y652000D03*X274000Y606000D03*
X274000Y590000D03*X258000Y590000D03*X258000Y606000D03*X142000Y732000D03*
X142000Y716000D03*X142000Y688000D03*X142000Y704000D03*X242000Y590000D03*
X242000Y606000D03*X233000Y636000D03*X233000Y652000D03*X192000Y652000D03*
X192000Y636000D03*X294000Y506000D03*X294000Y490000D03*X526000Y684000D03*
X526000Y668000D03*X512000Y684000D03*X512000Y668000D03*X686000Y660000D03*
X686000Y644000D03*X708000Y660000D03*X708000Y644000D03*X618000Y602000D03*
X618000Y586000D03*X768000Y602000D03*X768000Y586000D03*X686000Y632000D03*
X686000Y616000D03*X708000Y632000D03*X708000Y616000D03*X632000Y586000D03*
X632000Y602000D03*X754000Y586000D03*X754000Y602000D03*X672000Y586000D03*
X672000Y602000D03*X714000Y586000D03*X714000Y602000D03*X686000Y688000D03*
X686000Y672000D03*X708000Y688000D03*X708000Y672000D03*X618000Y616000D03*
X618000Y632000D03*X632000Y616000D03*X632000Y632000D03*X660000Y602000D03*
X660000Y586000D03*X684000Y586000D03*X684000Y602000D03*X768000Y616000D03*
X768000Y632000D03*X754000Y616000D03*X754000Y632000D03*X726000Y602000D03*
X726000Y586000D03*X702000Y586000D03*X702000Y602000D03*X646000Y586000D03*
X646000Y602000D03*X740000Y586000D03*X740000Y602000D03*X652000Y672000D03*
X652000Y688000D03*X667000Y688000D03*X667000Y672000D03*X667000Y660000D03*
X667000Y644000D03*X880000Y500000D03*X880000Y484000D03*X894000Y500000D03*
X894000Y484000D03*X1949000Y736000D03*X2470000Y737000D03*X171000Y870000D03*
X171000Y886000D03*X207000Y870000D03*X207000Y886000D03*X195000Y886000D03*
X195000Y870000D03*X183000Y886000D03*X183000Y870000D03*X553000Y812000D03*
X553000Y796000D03*X541000Y812000D03*X541000Y796000D03*X796000Y1002000D03*
X796000Y1018000D03*X846000Y889000D03*X846000Y873000D03*X784000Y982000D03*
X784000Y966000D03*X780000Y1018000D03*X870000Y889000D03*X870000Y873000D03*
X858000Y889000D03*X858000Y873000D03*X2044000Y922000D03*X2044000Y938000D03*
X1946000Y956000D03*X1946000Y972000D03*X2074000Y938000D03*X2074000Y922000D03*
X1949000Y752000D03*X2074000Y958000D03*X2074000Y974000D03*X1914000Y956000D03*
X1914000Y972000D03*X1962000Y972000D03*X1962000Y956000D03*X1978000Y972000D03*
X1978000Y956000D03*X1870000Y774000D03*X1870000Y758000D03*X1930000Y972000D03*
X1930000Y956000D03*X2132000Y958000D03*X2132000Y974000D03*X2402000Y880000D03*
X2402000Y896000D03*X2132000Y938000D03*X2132000Y922000D03*X2444000Y880000D03*
X2444000Y896000D03*X2536000Y948000D03*X2536000Y932000D03*X2430000Y880000D03*
X2430000Y896000D03*X2462000Y880000D03*X2462000Y896000D03*X2522000Y932000D03*
X2522000Y948000D03*X2470000Y753000D03*X282000Y1075000D03*X282000Y1091000D03*
X884000Y1050000D03*X884000Y1034000D03*X870000Y1050000D03*X870000Y1034000D03*
X796000Y1050000D03*X796000Y1034000D03*X780000Y1034000D03*X2346000Y1202000D03*
X2346000Y1186000D03*X2332000Y1202000D03*X2332000Y1186000D03*X2162000Y1202000D03*
X2162000Y1186000D03*X2178000Y1202000D03*X2178000Y1186000D03*X2420000Y1026000D03*
X2420000Y1042000D03*X2434000Y1026000D03*X2434000Y1042000D03*X2448000Y1026000D03*
X2448000Y1042000D03*X2472000Y1026000D03*X2472000Y1042000D03*X2486000Y1026000D03*
X2486000Y1042000D03*X0Y0D02*D02*G54D437*X1638000Y90000D03*
X1654000Y90000D03*X1638000Y108000D03*X1654000Y108000D03*X822000Y370000D03*
X838000Y370000D03*X864000Y472000D03*X880000Y472000D03*X864000Y432000D03*
X880000Y432000D03*X1084000Y238000D03*X1068000Y238000D03*X1036000Y238000D03*
X1052000Y238000D03*X1184000Y238000D03*X1168000Y238000D03*X936000Y312000D03*
X952000Y312000D03*X952000Y338000D03*X936000Y338000D03*X910000Y472000D03*
X894000Y472000D03*X1174000Y293000D03*X910000Y432000D03*X894000Y432000D03*
X1190000Y293000D03*X1950000Y400000D03*X1966000Y400000D03*X1950000Y306000D03*
X1966000Y306000D03*X1950000Y380000D03*X1966000Y380000D03*X1976000Y214000D03*
X1992000Y214000D03*X1950000Y286000D03*X1966000Y286000D03*X1896000Y380000D03*
X1880000Y380000D03*X1896000Y286000D03*X1880000Y286000D03*X1930000Y364000D03*
X1914000Y364000D03*X1930000Y270000D03*X1914000Y270000D03*X1896000Y400000D03*
X1880000Y400000D03*X1896000Y306000D03*X1880000Y306000D03*X2280000Y326000D03*
X2264000Y326000D03*X2220000Y374000D03*X2204000Y374000D03*X2264000Y338000D03*
X2280000Y338000D03*X2264000Y362000D03*X2280000Y362000D03*X2236000Y374000D03*
X2252000Y374000D03*X2398000Y358000D03*X2398000Y346000D03*X2398000Y370000D03*
X2398000Y334000D03*X2220000Y362000D03*X2204000Y362000D03*X2280000Y350000D03*
X2264000Y350000D03*X2280000Y314000D03*X2264000Y314000D03*X2264000Y374000D03*
X2280000Y374000D03*X2440000Y410000D03*X2456000Y410000D03*X2450000Y356000D03*
X2434000Y356000D03*X2456000Y394000D03*X2440000Y394000D03*X2414000Y358000D03*
X2414000Y346000D03*X2414000Y370000D03*X2414000Y334000D03*X2434000Y370000D03*
X2450000Y370000D03*X134000Y590000D03*X150000Y590000D03*X108000Y554000D03*
X124000Y554000D03*X108000Y572000D03*X124000Y572000D03*X108000Y590000D03*
X124000Y590000D03*X120500Y626500D03*X136500Y626500D03*X120500Y614500D03*
X136500Y614500D03*X81000Y667000D03*X97000Y667000D03*X208000Y590000D03*
X192000Y590000D03*X178000Y590000D03*X162000Y590000D03*X380000Y686000D03*
X396000Y686000D03*X396000Y722000D03*X380000Y722000D03*X396000Y734000D03*
X380000Y734000D03*X396000Y746000D03*X380000Y746000D03*X396000Y698000D03*
X380000Y698000D03*X396000Y710000D03*X380000Y710000D03*X584000Y534000D03*
X600000Y534000D03*X744000Y522000D03*X728000Y522000D03*X668000Y572000D03*
X684000Y572000D03*X718000Y572000D03*X702000Y572000D03*X626000Y506000D03*
X610000Y506000D03*X796000Y508000D03*X780000Y508000D03*X616000Y572000D03*
X632000Y572000D03*X770000Y572000D03*X754000Y572000D03*X684000Y558000D03*
X668000Y558000D03*X702000Y558000D03*X718000Y558000D03*X600000Y520000D03*
X584000Y520000D03*X600000Y506000D03*X584000Y506000D03*X610000Y520000D03*
X626000Y520000D03*X770000Y522000D03*X754000Y522000D03*X770000Y508000D03*
X754000Y508000D03*X780000Y522000D03*X796000Y522000D03*X626000Y492000D03*
X610000Y492000D03*X796000Y494000D03*X780000Y494000D03*X592000Y684000D03*
X608000Y684000D03*X822000Y714000D03*X806000Y714000D03*X592000Y668000D03*
X608000Y668000D03*X155000Y852000D03*X171000Y852000D03*X155000Y792000D03*
X171000Y792000D03*X155000Y804000D03*X171000Y804000D03*X155000Y816000D03*
X171000Y816000D03*X155000Y828000D03*X171000Y828000D03*X155000Y840000D03*
X171000Y840000D03*X396000Y788000D03*X380000Y788000D03*X883000Y838000D03*
X867000Y838000D03*X710000Y924000D03*X726000Y924000D03*X710000Y938000D03*
X726000Y938000D03*X710000Y962000D03*X726000Y962000D03*X710000Y976000D03*
X726000Y976000D03*X832000Y824000D03*X848000Y824000D03*X848000Y838000D03*
X832000Y838000D03*X939000Y911000D03*X923000Y911000D03*X939000Y925000D03*
X923000Y925000D03*X939000Y971000D03*X923000Y971000D03*X939000Y985000D03*
X923000Y985000D03*X1026000Y934000D03*X1042000Y934000D03*X1026000Y918000D03*
X1042000Y918000D03*X1026000Y886000D03*X1042000Y886000D03*X1026000Y902000D03*
X1042000Y902000D03*X2044000Y1022000D03*X2028000Y1022000D03*X2044000Y1008000D03*
X2028000Y1008000D03*X2094000Y974000D03*X2382000Y912000D03*X2366000Y912000D03*
X2332000Y1006000D03*X2316000Y1006000D03*X2110000Y974000D03*X2382000Y968000D03*
X2366000Y968000D03*X2366000Y984000D03*X2382000Y984000D03*X2488000Y878000D03*
X2504000Y878000D03*X872000Y1100000D03*X856000Y1100000D03*X844000Y1100000D03*
X828000Y1100000D03*X1004000Y1100000D03*X1020000Y1100000D03*X1032000Y1100000D03*
X1048000Y1100000D03*X1564000Y1152000D03*X1580000Y1152000D03*X1564000Y1164000D03*
X1580000Y1164000D03*X2044000Y1036000D03*X2028000Y1036000D03*X2330000Y1096000D03*
X2346000Y1096000D03*X2332000Y1030000D03*X2316000Y1030000D03*D02*G54D438*
X59000Y666750D03*X59000Y654250D03*X59000Y641750D03*X59000Y629250D03*
X2070000Y1074500D03*X2070000Y1062000D03*X2070000Y1049500D03*X2070000Y1037000D03*
X2070000Y1087000D03*D02*G54D439*X30000Y692250D03*X30000Y603750D03*
X2099000Y1011500D03*X2099000Y1112500D03*D02*G54D440*X194000Y938000D03*
X202000Y938000D03*X210000Y938000D03*X218000Y938000D03*X226000Y938000D03*
X234000Y938000D03*X242000Y938000D03*X250000Y938000D03*X258000Y938000D03*
X266000Y938000D03*X274000Y938000D03*X282000Y938000D03*X290000Y938000D03*
X298000Y938000D03*X306000Y938000D03*X314000Y938000D03*X322000Y938000D03*
X330000Y938000D03*X338000Y938000D03*X346000Y938000D03*X354000Y938000D03*
X362000Y938000D03*X266000Y1058000D03*X258000Y1058000D03*X250000Y1058000D03*
X242000Y1058000D03*X234000Y1058000D03*X226000Y1058000D03*X218000Y1058000D03*
X210000Y1058000D03*X202000Y1058000D03*X194000Y1058000D03*X362000Y1058000D03*
X354000Y1058000D03*X346000Y1058000D03*X338000Y1058000D03*X330000Y1058000D03*
X322000Y1058000D03*X314000Y1058000D03*X306000Y1058000D03*X298000Y1058000D03*
X290000Y1058000D03*X282000Y1058000D03*X274000Y1058000D03*D02*G54D441*
X166000Y1108500D03*X166000Y1113500D03*X166000Y1118500D03*X166000Y1123500D03*
X166000Y1128500D03*X166000Y1133500D03*X166000Y1138500D03*X166000Y1143500D03*
X166000Y1148500D03*X166000Y1153500D03*X166000Y1158500D03*X166000Y1163500D03*
X166000Y1168500D03*X166000Y1173500D03*X166000Y1178500D03*X166000Y1183500D03*
X166000Y1188500D03*X166000Y1193500D03*X166000Y1198500D03*X166000Y1203500D03*
X166000Y1208500D03*X166000Y1213500D03*X166000Y1218500D03*X166000Y1223500D03*
X166000Y1228500D03*X166000Y1233500D03*X166000Y1238500D03*X166000Y1243500D03*
X366000Y1108500D03*X366000Y1113500D03*X366000Y1118500D03*X366000Y1123500D03*
X366000Y1128500D03*X366000Y1133500D03*X366000Y1138500D03*X366000Y1143500D03*
X366000Y1148500D03*X366000Y1153500D03*X366000Y1158500D03*X366000Y1163500D03*
X366000Y1168500D03*X366000Y1173500D03*X366000Y1178500D03*X366000Y1183500D03*
X366000Y1188500D03*X366000Y1193500D03*X366000Y1198500D03*X366000Y1203500D03*
X366000Y1208500D03*X366000Y1213500D03*X366000Y1218500D03*X366000Y1223500D03*
X366000Y1228500D03*X366000Y1233500D03*X366000Y1238500D03*X366000Y1243500D03*
D02*G54D442*X520000Y203000D03*X576000Y203000D03*X520000Y229000D03*
X576000Y229000D03*D02*G54D443*X573000Y668000D03*X547000Y668000D03*D02*
G54D444*X1489250Y299500D03*X1482750Y299500D03*X1476250Y299500D03*
X1469750Y299500D03*X1463250Y299500D03*X1456750Y299500D03*X1450250Y299500D03*
X1443750Y299500D03*X1437250Y299500D03*X1430750Y299500D03*X1430750Y372500D03*
X1437250Y372500D03*X1443750Y372500D03*X1450250Y372500D03*X1456750Y372500D03*
X1463250Y372500D03*X1469750Y372500D03*X1476250Y372500D03*X1482750Y372500D03*
X1489250Y372500D03*D02*G54D445*X1600100Y1247250D03*X1875900Y1247250D03*D02*
G54D446*X1615500Y1216000D03*X1620500Y1216000D03*X1625500Y1216000D03*
X1630500Y1216000D03*X1635500Y1216000D03*X1640500Y1216000D03*X1645500Y1216000D03*
X1650500Y1216000D03*X1655500Y1216000D03*X1660500Y1216000D03*X1795500Y1216000D03*
X1790500Y1216000D03*X1785500Y1216000D03*X1780500Y1216000D03*X1775500Y1216000D03*
X1770500Y1216000D03*X1765500Y1216000D03*X1760500Y1216000D03*X1755500Y1216000D03*
X1750500Y1216000D03*X1745500Y1216000D03*X1740500Y1216000D03*X1735500Y1216000D03*
X1730500Y1216000D03*X1725500Y1216000D03*X1720500Y1216000D03*X1715500Y1216000D03*
X1710500Y1216000D03*X1705500Y1216000D03*X1700500Y1216000D03*X1695500Y1216000D03*
X1690500Y1216000D03*X1685500Y1216000D03*X1680500Y1216000D03*X1675500Y1216000D03*
X1670500Y1216000D03*X1665500Y1216000D03*X1860500Y1216000D03*X1855500Y1216000D03*
X1850500Y1216000D03*X1845500Y1216000D03*X1840500Y1216000D03*X1835500Y1216000D03*
X1830500Y1216000D03*X1825500Y1216000D03*X1820500Y1216000D03*X1815500Y1216000D03*
X1810500Y1216000D03*X1805500Y1216000D03*X1800500Y1216000D03*D02*G54D447*
X1896500Y214000D03*X1947500Y214000D03*D02*G54D448*X2058500Y736000D03*
X2215500Y736000D03*D02*G54D449*X2574250Y884000D03*X2574250Y864000D03*
X2574250Y844000D03*X2574250Y824000D03*M02*
