%MOMM*%
%FSLAX34Y34*%
%ADD10R,0.4500000X0.5000000*%
%ADD11R,0.5500000X0.8000000*%
%ADD12R,0.8000000X1.2000000*%
%ADD15R,0.5000000X0.4500000*%
%ADD71R,0.8000000X0.5500000*%
%ADD25C,0.1000000*%
%ADD127R,2.0000000X0.7500000*%
%ADD128R,2.0000000X0.2500000*%
%ADD129R,0.9000000X0.8000000*%
%ADD130R,0.8000000X0.9000000*%
%ADD131R,1.2000000X0.8000000*%
%ADD132R,0.2500000X0.5000000*%
%ADD133R,0.7000000X1.0000000*%
G90*G71*G01*D02*G54D10*X2099500Y2174000D03*X2108500Y2174000D03*
X2165500Y2158000D03*X2174500Y2158000D03*X1827500Y2210000D03*X1818500Y2210000D03*
X2099501Y2182000D03*X2108501Y2182000D03*X2099500Y2210000D03*X2108500Y2210000D03*
X2099500Y2198000D03*X2108500Y2198000D03*X2099501Y2190000D03*X2108501Y2190000D03*
X2126500Y2214000D03*X2135500Y2214000D03*X2135500Y2202000D03*X2126500Y2202000D03*
X2135500Y2194000D03*X2126500Y2194000D03*X2181500Y2202000D03*X2190500Y2202000D03*
X2190500Y2214000D03*X2181500Y2214000D03*X2099500Y2230000D03*X2108500Y2230000D03*
X2099500Y2222000D03*X2108500Y2222000D03*X2190500Y2224000D03*X2181500Y2224000D03*
X1755500Y2288000D03*X1755500Y2280000D03*X1764500Y2288000D03*X1764500Y2280000D03*
X1837500Y2282000D03*X1846500Y2282000D03*X2213500Y2304000D03*X2222500Y2304000D03*
X2222500Y2296000D03*X2213500Y2296000D03*X2191500Y2311000D03*X2200500Y2311000D03*
X2222500Y2312000D03*X2213500Y2312000D03*X2103500Y2375000D03*X2112500Y2375000D03*
X1880500Y2380500D03*X1871500Y2380500D03*X1878000Y2407000D03*X1887000Y2407000D03*
X1891500Y2394000D03*X1900500Y2394000D03*X1934000Y2387000D03*X1925000Y2387000D03*
X1925000Y2394500D03*X1934000Y2394500D03*X1959000Y2400500D03*X1950000Y2400500D03*
X1978000Y2400500D03*X1969000Y2400500D03*X1772500Y2426000D03*X1781500Y2426000D03*
X1781500Y2416000D03*X1772500Y2416000D03*X1772500Y2435000D03*X1781500Y2435000D03*
X1825500Y2437000D03*X1816500Y2437000D03*X1825500Y2429000D03*X1816500Y2429000D03*
X1862000Y2426500D03*X1853000Y2426500D03*X1883500Y2435000D03*X1874500Y2435000D03*
X1883500Y2426500D03*X1874500Y2426500D03*X1949000Y2428500D03*X1958000Y2428500D03*
X1949000Y2436500D03*X1958000Y2436500D03*X1949000Y2420500D03*X1958000Y2420500D03*
X1977500Y2428500D03*X1968500Y2428500D03*X1977500Y2436500D03*X1968500Y2436500D03*
X1816500Y2469000D03*X1825500Y2469000D03*X1825500Y2445000D03*X1816500Y2445000D03*
X1852000Y2472000D03*X1861000Y2472000D03*X1883500Y2443000D03*X1874500Y2443000D03*
X1883500Y2459000D03*X1874500Y2459000D03*X1874500Y2451000D03*X1883500Y2451000D03*
X1938000Y2472000D03*X1956000Y2472000D03*X1965000Y2472000D03*X1949000Y2460500D03*
X1958000Y2460500D03*X1949000Y2444500D03*X1958000Y2444500D03*X1949000Y2452500D03*
X1958000Y2452500D03*X1947000Y2472000D03*X1977500Y2444500D03*X1968500Y2444500D03*
X1988500Y2452500D03*X1979500Y2452500D03*X1982000Y2472000D03*X1973000Y2472000D03*
X2119500Y2455000D03*X2128500Y2455000D03*X2183500Y2445000D03*X2192500Y2445000D03*
X1887000Y2485000D03*X1887000Y2498000D03*X1896000Y2485000D03*X1896000Y2498000D03*
X1937500Y2485000D03*X1946500Y2485000D03*X1982000Y2503000D03*X1991000Y2503000D03*
X1887000Y2506000D03*X1896000Y2506000D03*X2148500Y2507000D03*X2139500Y2507000D03*
X2135500Y2523000D03*X2144500Y2523000D03*X2109500Y2612000D03*X2100500Y2612000D03*
X2109500Y2628000D03*X2100500Y2628000D03*X2198500Y2608500D03*X2189500Y2608500D03*
X2198500Y2629000D03*X2189500Y2629000D03*X2198500Y2620000D03*X2189500Y2620000D03*
X2242500Y2622500D03*X2251500Y2622500D03*X2270500Y2622500D03*X2261500Y2622500D03*
X1750500Y2650000D03*X1750500Y2637000D03*X1759500Y2650000D03*X1759500Y2637000D03*
X1800500Y2640000D03*X1791500Y2640000D03*X1800500Y2648000D03*X1791500Y2648000D03*
X1928500Y2662000D03*X1919500Y2662000D03*X2100500Y2644000D03*X2109500Y2644000D03*
X2189500Y2637000D03*X2198500Y2637000D03*X2198500Y2645500D03*X2189500Y2645500D03*
X2226500Y2635000D03*X2235500Y2635000D03*X2279500Y2634000D03*X2288500Y2634000D03*
X1928500Y2681000D03*X1919500Y2681000D03*X1928500Y2691000D03*X1919500Y2691000D03*
X2175500Y2672000D03*X2184500Y2672000D03*X2224500Y2671000D03*X2233500Y2671000D03*
D02*G54D11*X2002500Y2242000D03*X2017500Y2242000D03*X2121500Y2296000D03*
X2136500Y2296000D03*X1825500Y2419000D03*X1840500Y2419000D03*X1924500Y2435000D03*
X1939500Y2435000D03*X1964500Y2411000D03*X1949500Y2411000D03*X2195500Y2459000D03*
X2180500Y2459000D03*X1828500Y2479000D03*X1813500Y2479000D03*X1906500Y2504500D03*
X1921500Y2504500D03*X2256500Y2574000D03*X2271500Y2574000D03*X2255500Y2634000D03*
X2270500Y2634000D03*X1837500Y2658000D03*X1822500Y2658000D03*X1837500Y2646000D03*
X1822500Y2646000D03*X1837500Y2670000D03*X1822500Y2670000D03*D02*G54D12*
X1906500Y2470000D03*X1922500Y2470000D03*X2088000Y2536000D03*X2104000Y2536000D03*
X2030000Y2612000D03*X2046000Y2612000D03*X2046000Y2628000D03*X2030000Y2628000D03*
X2122000Y2612000D03*X2122000Y2628000D03*X2138000Y2612000D03*X2138000Y2628000D03*
X2046000Y2644000D03*X2030000Y2644000D03*X2122000Y2644000D03*X2138000Y2644000D03*
D02*G54D15*X1819000Y2170500D03*X1819000Y2161500D03*X1892000Y2178500D03*
X1892000Y2169500D03*X1979000Y2178500D03*X1979000Y2169500D03*X2062000Y2180500D03*
X2051000Y2170500D03*X2051000Y2161500D03*X2054000Y2180500D03*X2070000Y2180500D03*
X2125000Y2173500D03*X2132000Y2149500D03*X2132000Y2158500D03*X2146000Y2158500D03*
X2146000Y2149500D03*X2152001Y2173500D03*X2164000Y2173500D03*X2188000Y2180500D03*
X2183000Y2166500D03*X2183000Y2157500D03*X1819000Y2185500D03*X1819000Y2194500D03*
X1850000Y2194500D03*X1850000Y2185500D03*X1981000Y2209500D03*X1981000Y2200500D03*
X2062000Y2189500D03*X2054000Y2189500D03*X2070000Y2189500D03*X2125000Y2182500D03*
X2152001Y2182500D03*X2164000Y2182500D03*X2188000Y2189500D03*X1993000Y2217500D03*
X1993000Y2226500D03*X2148001Y2225500D03*X2148001Y2234500D03*X2172001Y2225500D03*
X2172001Y2234500D03*X1975000Y2266500D03*X1975000Y2257500D03*X2124000Y2270500D03*
X2124000Y2261500D03*X2140000Y2261500D03*X2140000Y2270500D03*X2148000Y2270500D03*
X2148000Y2261500D03*X2132000Y2270500D03*X2132000Y2261500D03*X2156000Y2261500D03*
X2156000Y2270500D03*X2164000Y2270500D03*X2164000Y2261500D03*X2172000Y2261500D03*
X2172000Y2270500D03*X2188000Y2261500D03*X2188000Y2270500D03*X2180000Y2270500D03*
X2180000Y2261500D03*X2196000Y2261500D03*X2196000Y2270500D03*X2204000Y2270500D03*
X2204000Y2261500D03*X2036000Y2288500D03*X2036000Y2297500D03*X2181000Y2305500D03*
X2088000Y2323500D03*X2088000Y2332500D03*X2181000Y2314500D03*X1875000Y2352500D03*
X1875000Y2343500D03*X1867000Y2352500D03*X1867000Y2343500D03*X1883000Y2352500D03*
X1883000Y2343500D03*X1893500Y2372000D03*X1939000Y2352500D03*X1939000Y2343500D03*
X1931000Y2352500D03*X1931000Y2343500D03*X1947000Y2352500D03*X1947000Y2343500D03*
X1955000Y2352500D03*X1955000Y2343500D03*X2150000Y2361500D03*X2150000Y2370500D03*
X2175000Y2361500D03*X2175000Y2370500D03*X1807000Y2395500D03*X1807000Y2404500D03*
X1893500Y2381000D03*X1913500Y2396500D03*X1913500Y2387500D03*X1928000Y2406500D03*
X1942000Y2392000D03*X1942000Y2401000D03*X1807000Y2423500D03*X1807000Y2414500D03*
X1900500Y2429000D03*X1900500Y2438000D03*X1900500Y2418000D03*X1900500Y2409000D03*
X1908000Y2429000D03*X1908000Y2438000D03*X1908000Y2418000D03*X1908000Y2409000D03*
X1916000Y2429000D03*X1916000Y2438000D03*X1928000Y2415500D03*X2021000Y2416500D03*
X2021000Y2425500D03*X2037000Y2416500D03*X2037000Y2425500D03*X2029000Y2425500D03*
X2029000Y2416500D03*X2132000Y2423500D03*X2132000Y2432500D03*X1854500Y2453000D03*
X1854500Y2444000D03*X1847000Y2453000D03*X1847000Y2444000D03*X1900500Y2455000D03*
X1900500Y2446000D03*X1908000Y2455000D03*X1908000Y2446000D03*X1893000Y2455000D03*
X1893000Y2446000D03*X1916000Y2455000D03*X1916000Y2446000D03*X1924000Y2455000D03*
X1924000Y2446000D03*X1971500Y2461500D03*X1971500Y2452500D03*X2030000Y2471500D03*
X2030000Y2462500D03*X2096000Y2464500D03*X1839500Y2491000D03*X1839500Y2482000D03*
X1874500Y2496000D03*X1918500Y2482500D03*X1918500Y2491500D03*X1958500Y2498000D03*
X2014000Y2488500D03*X2014000Y2479500D03*X2022000Y2488500D03*X2022000Y2479500D03*
X2030000Y2488500D03*X2030000Y2479500D03*X2096000Y2473500D03*X1874500Y2505000D03*
X1958500Y2507000D03*X1982000Y2511500D03*X1982000Y2520500D03*X1991000Y2511500D03*
X1991000Y2520500D03*X2110000Y2523500D03*X2110000Y2514500D03*X2160000Y2531500D03*
X2160000Y2522500D03*X1816500Y2597500D03*X1816500Y2588500D03*X2235500Y2579000D03*
X2235500Y2588000D03*X2235500Y2597000D03*X1816500Y2607500D03*X1816500Y2616500D03*
X2235500Y2606000D03*X2215500Y2654500D03*X2215500Y2645500D03*X2228000Y2654500D03*
X2228000Y2645500D03*X2245500Y2642500D03*X2245500Y2651500D03*D02*G54D71*
X2080000Y2177500D03*X2176000Y2174500D03*X2054000Y2201500D03*X2080000Y2192500D03*
X2176000Y2189500D03*X1817000Y2225500D03*X1817000Y2240500D03*X2054000Y2234500D03*
X2054000Y2216500D03*X2159000Y2240500D03*X2159000Y2225500D03*X2054000Y2249500D03*
X2104000Y2336500D03*X2104000Y2321500D03*X2186000Y2356500D03*X2186000Y2371500D03*
X1918000Y2405000D03*X1918000Y2420000D03*X1938000Y2410500D03*X1938000Y2425500D03*
X2037000Y2434000D03*X1937000Y2445500D03*X1937000Y2460500D03*X2037000Y2449000D03*
X2180000Y2499500D03*X1887000Y2515500D03*X1887000Y2530500D03*X2180000Y2514500D03*
X2215500Y2586500D03*X1838000Y2625500D03*X1838000Y2610500D03*X1850000Y2625500D03*
X1850000Y2610500D03*X2215500Y2601500D03*X1771000Y2665500D03*X1771000Y2650500D03*
X1858000Y2658500D03*X2293000Y2642500D03*X2293000Y2657500D03*X1858000Y2673500D03*
D02*G54D25*X1690000Y2090000D02*X1688528Y2090036D01*X1687060Y2090145D01*
X1685598Y2090325D01*X1684147Y2090576D01*X1682711Y2090899D01*X1681292Y2091292D01*
X1679893Y2091754D01*X1678519Y2092284D01*X1677173Y2092880D01*X1675858Y2093542D01*
X1674577Y2094268D01*X1673333Y2095056D01*X1672129Y2095904D01*X1670968Y2096810D01*
X1669853Y2097772D01*X1668787Y2098787D01*X1667772Y2099853D01*X1666810Y2100968D01*
X1665904Y2102129D01*X1665056Y2103333D01*X1664268Y2104577D01*X1663542Y2105858D01*
X1662880Y2107173D01*X1662284Y2108520D01*X1661754Y2109893D01*X1661292Y2111292D01*
X1660899Y2112711D01*X1660576Y2114147D01*X1660325Y2115598D01*X1660145Y2117060D01*
X1660036Y2118528D01*X1660000Y2120000D01*X2410000Y2120000D02*X2409964Y2118528D01*
X2409856Y2117060D01*X2409675Y2115598D01*X2409424Y2114147D01*X2409101Y2112711D01*
X2408708Y2111292D01*X2408246Y2109893D01*X2407716Y2108520D01*X2407120Y2107173D01*
X2406458Y2105858D01*X2405732Y2104577D01*X2404944Y2103333D01*X2404096Y2102129D01*
X2403190Y2100968D01*X2402229Y2099853D01*X2401213Y2098787D01*X2400147Y2097772D01*
X2399032Y2096810D01*X2397871Y2095904D01*X2396667Y2095056D01*X2395423Y2094268D01*
X2394142Y2093542D01*X2392827Y2092880D01*X2391481Y2092284D01*X2390107Y2091754D01*
X2388709Y2091292D01*X2387289Y2090899D01*X2385853Y2090576D01*X2384402Y2090325D01*
X2382941Y2090145D01*X2381472Y2090036D01*X2380000Y2090000D01*X2380000Y2720000D02*
X2381472Y2719964D01*X2382941Y2719856D01*X2384402Y2719675D01*X2385853Y2719424D01*
X2387289Y2719101D01*X2388709Y2718708D01*X2390107Y2718246D01*X2391481Y2717716D01*
X2392827Y2717120D01*X2394142Y2716458D01*X2395423Y2715732D01*X2396667Y2714944D01*
X2397871Y2714096D01*X2399032Y2713190D01*X2400147Y2712229D01*X2401213Y2711213D01*
X2402229Y2710147D01*X2403190Y2709032D01*X2404096Y2707871D01*X2404944Y2706667D01*
X2405732Y2705423D01*X2406458Y2704142D01*X2407120Y2702827D01*X2407716Y2701481D01*
X2408246Y2700107D01*X2408708Y2698709D01*X2409101Y2697289D01*X2409424Y2695853D01*
X2409675Y2694402D01*X2409856Y2692941D01*X2409964Y2691472D01*X2410000Y2690000D01*
X1660000Y2690000D02*X1660036Y2691472D01*X1660145Y2692941D01*X1660325Y2694402D01*
X1660576Y2695853D01*X1660899Y2697289D01*X1661292Y2698709D01*X1661754Y2700107D01*
X1662284Y2701481D01*X1662880Y2702827D01*X1663542Y2704142D01*X1664268Y2705423D01*
X1665056Y2706667D01*X1665904Y2707871D01*X1666810Y2709032D01*X1667772Y2710147D01*
X1668787Y2711213D01*X1669853Y2712229D01*X1670968Y2713190D01*X1672129Y2714096D01*
X1673333Y2714944D01*X1674577Y2715732D01*X1675858Y2716458D01*X1677173Y2717120D01*
X1678519Y2717716D01*X1679893Y2718246D01*X1681292Y2718708D01*X1682711Y2719101D01*
X1684147Y2719424D01*X1685598Y2719675D01*X1687060Y2719856D01*X1688528Y2719964D01*
X1690000Y2720000D01*X1690000Y2090000D02*X2380000Y2090000D01*X2410000Y2120000D02*
X2410000Y2690000D01*X2380000Y2720000D02*X1690000Y2720000D01*X1660000Y2690000D02*
X1660000Y2120000D01*D02*G54D127*X1688000Y2280000D03*X1732000Y2280000D03*
X2338000Y2280000D03*X2382000Y2280000D03*X1688000Y2530000D03*X1732000Y2530000D03*
X2338000Y2530000D03*X2382000Y2530000D03*D02*G54D128*X1688000Y2287500D03*
X1688000Y2292500D03*X1688000Y2297500D03*X1688000Y2302500D03*X1688000Y2307500D03*
X1732000Y2287500D03*X1732000Y2292500D03*X1732000Y2297500D03*X1732000Y2302500D03*
X1732000Y2307500D03*X2338000Y2287500D03*X2338000Y2292500D03*X2338000Y2297500D03*
X2338000Y2302500D03*X2338000Y2307500D03*X2382000Y2287500D03*X2382000Y2292500D03*
X2382000Y2297500D03*X2382000Y2302500D03*X2382000Y2307500D03*X1688000Y2312500D03*
X1688000Y2317500D03*X1688000Y2322500D03*X1688000Y2327500D03*X1688000Y2332500D03*
X1688000Y2337500D03*X1732000Y2312500D03*X1732000Y2317500D03*X1732000Y2322500D03*
X1732000Y2327500D03*X1732000Y2332500D03*X1732000Y2337500D03*X2338000Y2312500D03*
X2338000Y2317500D03*X2338000Y2322500D03*X2338000Y2327500D03*X2338000Y2332500D03*
X2338000Y2337500D03*X2382000Y2312500D03*X2382000Y2317500D03*X2382000Y2322500D03*
X2382000Y2327500D03*X2382000Y2332500D03*X2382000Y2337500D03*X1688000Y2342500D03*
X1688000Y2347500D03*X1688000Y2352500D03*X1688000Y2357500D03*X1688000Y2362500D03*
X1688000Y2367500D03*X1688000Y2372500D03*X1732000Y2342500D03*X1732000Y2347500D03*
X1732000Y2352500D03*X1732000Y2357500D03*X1732000Y2362500D03*X1732000Y2367500D03*
X1732000Y2372500D03*X2338000Y2342500D03*X2338000Y2347500D03*X2338000Y2352500D03*
X2338000Y2357500D03*X2338000Y2362500D03*X2338000Y2367500D03*X2338000Y2372500D03*
X2382000Y2342500D03*X2382000Y2347500D03*X2382000Y2352500D03*X2382000Y2357500D03*
X2382000Y2362500D03*X2382000Y2367500D03*X2382000Y2372500D03*X1688000Y2377500D03*
X1688000Y2382500D03*X1688000Y2387500D03*X1688000Y2392500D03*X1688000Y2397500D03*
X1688000Y2402500D03*X1732000Y2377500D03*X1732000Y2382500D03*X1732000Y2387500D03*
X1732000Y2392500D03*X1732000Y2397500D03*X1732000Y2402500D03*X2338000Y2377500D03*
X2338000Y2382500D03*X2338000Y2387500D03*X2338000Y2392500D03*X2338000Y2397500D03*
X2338000Y2402500D03*X2382000Y2377500D03*X2382000Y2382500D03*X2382000Y2387500D03*
X2382000Y2392500D03*X2382000Y2397500D03*X2382000Y2402500D03*X1688000Y2407500D03*
X1688000Y2412500D03*X1688000Y2417500D03*X1688000Y2422500D03*X1688000Y2427500D03*
X1688000Y2432500D03*X1688000Y2437500D03*X1732000Y2407500D03*X1732000Y2412500D03*
X1732000Y2417500D03*X1732000Y2422500D03*X1732000Y2427500D03*X1732000Y2432500D03*
X1732000Y2437500D03*X2338000Y2407500D03*X2338000Y2412500D03*X2338000Y2417500D03*
X2338000Y2422500D03*X2338000Y2427500D03*X2338000Y2432500D03*X2338000Y2437500D03*
X2382000Y2407500D03*X2382000Y2412500D03*X2382000Y2417500D03*X2382000Y2422500D03*
X2382000Y2427500D03*X2382000Y2432500D03*X2382000Y2437500D03*X1688000Y2442500D03*
X1688000Y2447500D03*X1688000Y2452500D03*X1688000Y2457500D03*X1688000Y2462500D03*
X1688000Y2467500D03*X1732000Y2442500D03*X1732000Y2447500D03*X1732000Y2452500D03*
X1732000Y2457500D03*X1732000Y2462500D03*X1732000Y2467500D03*X2338000Y2442500D03*
X2338000Y2447500D03*X2338000Y2452500D03*X2338000Y2457500D03*X2338000Y2462500D03*
X2338000Y2467500D03*X2382000Y2442500D03*X2382000Y2447500D03*X2382000Y2452500D03*
X2382000Y2457500D03*X2382000Y2462500D03*X2382000Y2467500D03*X1688000Y2472500D03*
X1688000Y2477500D03*X1688000Y2482500D03*X1688000Y2487500D03*X1688000Y2492500D03*
X1688000Y2497500D03*X1688000Y2502500D03*X1732000Y2472500D03*X1732000Y2477500D03*
X1732000Y2482500D03*X1732000Y2487500D03*X1732000Y2492500D03*X1732000Y2497500D03*
X1732000Y2502500D03*X2338000Y2472500D03*X2338000Y2477500D03*X2338000Y2482500D03*
X2338000Y2487500D03*X2338000Y2492500D03*X2338000Y2497500D03*X2338000Y2502500D03*
X2382000Y2472500D03*X2382000Y2477500D03*X2382000Y2482500D03*X2382000Y2487500D03*
X2382000Y2492500D03*X2382000Y2497500D03*X2382000Y2502500D03*X1688000Y2507500D03*
X1688000Y2512500D03*X1688000Y2517500D03*X1688000Y2522500D03*X1732000Y2507500D03*
X1732000Y2512500D03*X1732000Y2517500D03*X1732000Y2522500D03*X2338000Y2507500D03*
X2338000Y2512500D03*X2338000Y2517500D03*X2338000Y2522500D03*X2382000Y2507500D03*
X2382000Y2512500D03*X2382000Y2517500D03*X2382000Y2522500D03*D02*G54D129*
X1774000Y2395000D03*X1794000Y2404500D03*X1794000Y2385500D03*X1796000Y2562500D03*
X1796000Y2581500D03*X1816000Y2572000D03*X1906000Y2662500D03*X1886000Y2672000D03*
X1906000Y2681500D03*D02*G54D130*X1772500Y2449000D03*X1782000Y2469000D03*
X1791500Y2449000D03*D02*G54D131*X1839000Y2171000D03*X1839000Y2155000D03*D02*
G54D132*X2199500Y2671000D03*X2199500Y2681000D03*X2214500Y2671000D03*
X2209500Y2671000D03*X2204500Y2671000D03*X2204500Y2681000D03*X2209500Y2681000D03*
X2214500Y2681000D03*X2203500Y2709000D03*X2208500Y2709000D03*X2213500Y2709000D03*
X2218500Y2709000D03*X2218500Y2699000D03*X2213500Y2699000D03*X2208500Y2699000D03*
X2203500Y2699000D03*X0Y0D02*D02*G54D133*X2251500Y2588000D03*
X2270500Y2588000D03*X2261000Y2588000D03*X2251500Y2612000D03*X2270500Y2612000D03*
M02*
