%MOMM*%
%FSLAX34Y34*%
%ADD10R,0.4500000X0.5000000*%
%ADD11R,0.5500000X0.8000000*%
%ADD12R,0.8000000X1.2000000*%
%ADD13R,1.2000000X1.4000000*%
%ADD14R,1.0000000X3.0000000*%
%ADD15R,0.5000000X0.4500000*%
%ADD19R,0.2000000X0.8000000*%
%ADD70R,0.8000000X0.2000000*%
%ADD71R,0.8000000X0.5500000*%
%ADD20R,3.0000000X1.0000000*%
%ADD24R,1.4000000X1.2000000*%
%ADD25C,0.1000000*%
%ADD72C,0.0750000*%
%ADD134C,0.4000000*%
%ADD135C,0.3000000*%
%ADD136C,0.2500000*%
%ADD163R,1.0000000X1.0000000*%
%ADD171R,1.6000000X3.0000000*%
%ADD172R,1.0000000X5.5000000*%
G90*G71*G01*D02*G54D10*X2099500Y2166000D03*X2108500Y2166000D03*
X2108500Y2174000D03*X2099500Y2174000D03*X2099500Y2158000D03*X2108500Y2158000D03*
X2143500Y2158000D03*X2152500Y2158000D03*X2165500Y2158000D03*X2174500Y2158000D03*
X2108500Y2210000D03*X2099500Y2210000D03*X2108501Y2190000D03*X2099501Y2190000D03*
X2108501Y2182000D03*X2099501Y2182000D03*X2108500Y2198000D03*X2099500Y2198000D03*
X2099500Y2243000D03*X2108500Y2243000D03*X2099500Y2235000D03*X2108500Y2235000D03*
X2108500Y2222000D03*X2099500Y2222000D03*X2223500Y2375000D03*X2232500Y2375000D03*
X2110500Y2405000D03*X2119500Y2405000D03*X2223501Y2383511D03*X2232501Y2383511D03*
X1780500Y2447000D03*X1771500Y2447000D03*X1800500Y2447000D03*X1791500Y2447000D03*
X1944500Y2580000D03*X1953500Y2580000D03*X2042500Y2658000D03*X2033500Y2658000D03*
X1909500Y2666000D03*X1918500Y2666000D03*X1946500Y2666000D03*X1955500Y2666000D03*
X2019500Y2682000D03*X2019500Y2690000D03*X2019500Y2674000D03*X2028500Y2682000D03*
X2028500Y2690000D03*X2028500Y2674000D03*X2122500Y2682000D03*X2113500Y2682000D03*
X2113500Y2690000D03*X2122500Y2690000D03*X2113500Y2674000D03*X2122500Y2674000D03*
X1752500Y2698000D03*X1761500Y2698000D03*D02*G54D11*X1941500Y2590000D03*
X1941500Y2602000D03*X1956500Y2590000D03*X1956500Y2602000D03*X1911500Y2628000D03*
X1911500Y2616000D03*X1926500Y2628000D03*X1926500Y2616000D03*X2122500Y2612000D03*
X2137500Y2612000D03*X1744500Y2635000D03*X1759500Y2635000D03*X1911500Y2640000D03*
X1911500Y2652000D03*X1926500Y2640000D03*X1926500Y2652000D03*X1749500Y2686000D03*
X1764500Y2686000D03*X1940500Y2678000D03*X1940500Y2692000D03*X1955500Y2678000D03*
X1955500Y2692000D03*X1940500Y2704000D03*X1955500Y2704000D03*X1990500Y2700000D03*
X2005500Y2700000D03*X2084500Y2700000D03*X2099500Y2700000D03*D02*G54D12*
X1941000Y2623000D03*X1957000Y2623000D03*X2046000Y2628000D03*X2030000Y2628000D03*
X2046000Y2612000D03*X2030000Y2612000D03*X2122000Y2628000D03*X2138000Y2628000D03*
X1749000Y2650000D03*X1765000Y2650000D03*X2046000Y2644000D03*X2030000Y2644000D03*
X2122000Y2644000D03*X2122000Y2660000D03*X2138000Y2644000D03*X2138000Y2660000D03*
X1749000Y2670000D03*X1765000Y2670000D03*D02*G54D13*X1779000Y2410000D03*
X1797000Y2410000D03*X1779000Y2432000D03*X1797000Y2432000D03*D02*G54D14*
X2194608Y2136000D03*X2217032Y2136000D03*X1779608Y2641000D03*X1802032Y2641000D03*
X1779608Y2679000D03*X1802032Y2679000D03*X1904608Y2692000D03*X1927032Y2692000D03*
D02*G54D15*X1890000Y2124500D03*X1890000Y2133500D03*X1898000Y2124500D03*
X1898000Y2133500D03*X2066000Y2189500D03*X2066000Y2198500D03*X2066000Y2207500D03*
X1926000Y2236500D03*X1926000Y2245500D03*X2066000Y2216500D03*X2124000Y2261500D03*
X2124000Y2270500D03*X2116000Y2270500D03*X2116000Y2261500D03*X2140000Y2270500D03*
X2140000Y2261500D03*X2164000Y2270500D03*X2164000Y2261500D03*X2156000Y2270500D03*
X2156000Y2261500D03*X2196000Y2270500D03*X2196000Y2261500D03*X2180000Y2270500D03*
X2180000Y2261500D03*X1812000Y2404500D03*X1812000Y2413500D03*X1812000Y2422500D03*
X1812000Y2431500D03*X1826000Y2581500D03*X1826000Y2590500D03*X1835000Y2581500D03*
X1835000Y2590500D03*X1834000Y2693500D03*X1826000Y2693500D03*X1842000Y2693500D03*
X1854000Y2693500D03*X1862000Y2693500D03*X1834000Y2702500D03*X1826000Y2702500D03*
X1842000Y2702500D03*X1854000Y2702500D03*X1862000Y2702500D03*D02*G54D19*
X2148001Y2174000D03*X2144001Y2174000D03*X2140001Y2174000D03*X2136001Y2174000D03*
X2176001Y2174000D03*X2172001Y2174000D03*X2168001Y2174000D03*X2164001Y2174000D03*
X2160001Y2174000D03*X2156001Y2174000D03*X2152001Y2174000D03*X2180001Y2174000D03*
X2136001Y2234000D03*X2140001Y2234000D03*X2144001Y2234000D03*X2148001Y2234000D03*
X2152001Y2234000D03*X2156001Y2234000D03*X2160001Y2234000D03*X2164001Y2234000D03*
X2168001Y2234000D03*X2172001Y2234000D03*X2176001Y2234000D03*X2180001Y2234000D03*
X1834000Y2612000D03*X1862000Y2612000D03*X1858000Y2612000D03*X1854000Y2612000D03*
X1850000Y2612000D03*X1846000Y2612000D03*X1842000Y2612000D03*X1838000Y2612000D03*
X1878000Y2612000D03*X1874000Y2612000D03*X1870000Y2612000D03*X1866000Y2612000D03*
X1834000Y2672000D03*X1838000Y2672000D03*X1842000Y2672000D03*X1846000Y2672000D03*
X1850000Y2672000D03*X1854000Y2672000D03*X1858000Y2672000D03*X1862000Y2672000D03*
X1866000Y2672000D03*X1870000Y2672000D03*X1874000Y2672000D03*X1878000Y2672000D03*
D02*G54D70*X2128001Y2182000D03*X2128001Y2186000D03*X2128001Y2190000D03*
X2128001Y2194000D03*X2128001Y2198000D03*X2128001Y2202000D03*X2128001Y2206000D03*
X2128001Y2210000D03*X2188001Y2210000D03*X2188001Y2206000D03*X2188001Y2202000D03*
X2188001Y2198000D03*X2188001Y2194000D03*X2188001Y2190000D03*X2188001Y2186000D03*
X2188001Y2182000D03*X2128001Y2214000D03*X2128001Y2218000D03*X2128001Y2222000D03*
X2128001Y2226000D03*X2188001Y2226000D03*X2188001Y2222000D03*X2188001Y2218000D03*
X2188001Y2214000D03*X1826000Y2620000D03*X1826000Y2624000D03*X1826000Y2628000D03*
X1826000Y2632000D03*X1886000Y2632000D03*X1886000Y2628000D03*X1886000Y2624000D03*
X1886000Y2620000D03*X1826000Y2636000D03*X1826000Y2640000D03*X1826000Y2644000D03*
X1826000Y2648000D03*X1826000Y2652000D03*X1826000Y2656000D03*X1826000Y2660000D03*
X1826000Y2664000D03*X1886000Y2664000D03*X1886000Y2660000D03*X1886000Y2656000D03*
X1886000Y2652000D03*X1886000Y2648000D03*X1886000Y2644000D03*X1886000Y2640000D03*
X1886000Y2636000D03*D02*G54D71*X2218000Y2173500D03*X2218000Y2158500D03*
X1858000Y2592500D03*X1858000Y2577500D03*X1846000Y2592500D03*X1846000Y2577500D03*
X1878000Y2592500D03*X1878000Y2577500D03*X1889000Y2690500D03*X1877000Y2690500D03*
X1889000Y2705500D03*X1877000Y2705500D03*D02*G54D20*X1915000Y2578968D03*
X1915000Y2601392D03*D02*G54D24*X2147000Y2127000D03*X2147000Y2145000D03*
X2169000Y2127000D03*X2169000Y2145000D03*D02*G54D25*X1690000Y2090000D02*
X1688528Y2090036D01*X1687060Y2090145D01*X1685598Y2090325D01*X1684147Y2090576D01*
X1682711Y2090899D01*X1681292Y2091292D01*X1679893Y2091754D01*X1678519Y2092284D01*
X1677173Y2092880D01*X1675858Y2093542D01*X1674577Y2094268D01*X1673333Y2095056D01*
X1672129Y2095904D01*X1670968Y2096810D01*X1669853Y2097772D01*X1668787Y2098787D01*
X1667772Y2099853D01*X1666810Y2100968D01*X1665904Y2102129D01*X1665056Y2103333D01*
X1664268Y2104577D01*X1663542Y2105858D01*X1662880Y2107173D01*X1662284Y2108520D01*
X1661754Y2109893D01*X1661292Y2111292D01*X1660899Y2112711D01*X1660576Y2114147D01*
X1660325Y2115598D01*X1660145Y2117060D01*X1660036Y2118528D01*X1660000Y2120000D01*
X2410000Y2120000D02*X2409964Y2118528D01*X2409856Y2117060D01*X2409675Y2115598D01*
X2409424Y2114147D01*X2409101Y2112711D01*X2408708Y2111292D01*X2408246Y2109893D01*
X2407716Y2108520D01*X2407120Y2107173D01*X2406458Y2105858D01*X2405732Y2104577D01*
X2404944Y2103333D01*X2404096Y2102129D01*X2403190Y2100968D01*X2402229Y2099853D01*
X2401213Y2098787D01*X2400147Y2097772D01*X2399032Y2096810D01*X2397871Y2095904D01*
X2396667Y2095056D01*X2395423Y2094268D01*X2394142Y2093542D01*X2392827Y2092880D01*
X2391481Y2092284D01*X2390107Y2091754D01*X2388709Y2091292D01*X2387289Y2090899D01*
X2385853Y2090576D01*X2384402Y2090325D01*X2382941Y2090145D01*X2381472Y2090036D01*
X2380000Y2090000D01*X2380000Y2720000D02*X2381472Y2719964D01*X2382941Y2719856D01*
X2384402Y2719675D01*X2385853Y2719424D01*X2387289Y2719101D01*X2388709Y2718708D01*
X2390107Y2718246D01*X2391481Y2717716D01*X2392827Y2717120D01*X2394142Y2716458D01*
X2395423Y2715732D01*X2396667Y2714944D01*X2397871Y2714096D01*X2399032Y2713190D01*
X2400147Y2712229D01*X2401213Y2711213D01*X2402229Y2710147D01*X2403190Y2709032D01*
X2404096Y2707871D01*X2404944Y2706667D01*X2405732Y2705423D01*X2406458Y2704142D01*
X2407120Y2702827D01*X2407716Y2701481D01*X2408246Y2700107D01*X2408708Y2698709D01*
X2409101Y2697289D01*X2409424Y2695853D01*X2409675Y2694402D01*X2409856Y2692941D01*
X2409964Y2691472D01*X2410000Y2690000D01*X1660000Y2690000D02*X1660036Y2691472D01*
X1660145Y2692941D01*X1660325Y2694402D01*X1660576Y2695853D01*X1660899Y2697289D01*
X1661292Y2698709D01*X1661754Y2700107D01*X1662284Y2701481D01*X1662880Y2702827D01*
X1663542Y2704142D01*X1664268Y2705423D01*X1665056Y2706667D01*X1665904Y2707871D01*
X1666810Y2709032D01*X1667772Y2710147D01*X1668787Y2711213D01*X1669853Y2712229D01*
X1670968Y2713190D01*X1672129Y2714096D01*X1673333Y2714944D01*X1674577Y2715732D01*
X1675858Y2716458D01*X1677173Y2717120D01*X1678519Y2717716D01*X1679893Y2718246D01*
X1681292Y2718708D01*X1682711Y2719101D01*X1684147Y2719424D01*X1685598Y2719675D01*
X1687060Y2719856D01*X1688528Y2719964D01*X1690000Y2720000D01*X1690000Y2090000D02*
X2380000Y2090000D01*X2410000Y2120000D02*X2410000Y2690000D01*X2380000Y2720000D02*
X1690000Y2720000D01*X1660000Y2690000D02*X1660000Y2120000D01*D02*G54D72*
X2041989Y2535995D02*X2044995Y2532989D01*X2047647Y2535641D01*X2044641Y2538647D01*
X2041989Y2535995D01*X2044995Y2532990D02*X2044996Y2532990D01*X2045596Y2533590D02*
X2044395Y2533590D01*X2043795Y2534190D02*X2046196Y2534190D01*X2046796Y2534790D02*
X2043195Y2534790D01*X2042594Y2535390D02*X2047396Y2535390D01*X2047299Y2535990D02*
X2041995Y2535990D01*X2042584Y2536590D02*X2046699Y2536590D01*X2046099Y2537190D02*
X2043184Y2537190D01*X2043784Y2537790D02*X2045499Y2537790D01*X2044899Y2538390D02*
X2044384Y2538390D01*X2044521Y2538527D02*X2044761Y2538527D01*X2056353Y2534359D02*
X2059359Y2531353D01*X2062011Y2534005D01*X2059005Y2537011D01*X2056353Y2534359D01*
X2059358Y2531354D02*X2059360Y2531354D01*X2059960Y2531954D02*X2058759Y2531954D01*
X2058159Y2532554D02*X2060560Y2532554D01*X2061160Y2533154D02*X2057559Y2533154D01*
X2056959Y2533754D02*X2061760Y2533754D01*X2061663Y2534354D02*X2056359Y2534354D01*
X2056948Y2534954D02*X2061063Y2534954D01*X2060462Y2535554D02*X2057548Y2535554D01*
X2058148Y2536154D02*X2059863Y2536154D01*X2059263Y2536754D02*X2058748Y2536754D01*
X2058885Y2536891D02*X2059125Y2536891D01*X2049989Y2527995D02*X2052995Y2524989D01*
X2055647Y2527641D01*X2052641Y2530647D01*X2049989Y2527995D01*X2052995Y2524990D02*
X2052996Y2524990D01*X2053596Y2525590D02*X2052395Y2525590D01*X2051795Y2526190D02*
X2054195Y2526190D01*X2054796Y2526790D02*X2051195Y2526790D01*X2050595Y2527390D02*
X2055396Y2527390D01*X2055299Y2527990D02*X2049995Y2527990D01*X2050584Y2528590D02*
X2054699Y2528590D01*X2054099Y2529190D02*X2051184Y2529190D01*X2051784Y2529790D02*
X2053499Y2529790D01*X2052899Y2530390D02*X2052384Y2530390D01*X2052521Y2530527D02*
X2052761Y2530527D01*X2042353Y2548359D02*X2045359Y2545353D01*X2048011Y2548005D01*
X2045005Y2551011D01*X2042353Y2548359D01*X2045359Y2545354D02*X2045360Y2545354D01*
X2045959Y2545954D02*X2044759Y2545954D01*X2044159Y2546554D02*X2046560Y2546554D01*
X2047160Y2547154D02*X2043559Y2547154D01*X2042959Y2547754D02*X2047760Y2547754D01*
X2047663Y2548354D02*X2042359Y2548354D01*X2042948Y2548954D02*X2047063Y2548954D01*
X2046463Y2549554D02*X2043548Y2549554D01*X2044148Y2550154D02*X2045863Y2550154D01*
X2045263Y2550754D02*X2044748Y2550754D01*X2044885Y2550891D02*X2045125Y2550891D01*
X2035989Y2541995D02*X2038995Y2538989D01*X2041647Y2541641D01*X2038641Y2544647D01*
X2035989Y2541995D01*X2038995Y2538990D02*X2038996Y2538990D01*X2039596Y2539590D02*
X2038395Y2539590D01*X2037795Y2540190D02*X2040196Y2540190D01*X2040796Y2540790D02*
X2037195Y2540790D01*X2036595Y2541390D02*X2041396Y2541390D01*X2041299Y2541990D02*
X2035995Y2541990D01*X2036584Y2542590D02*X2040699Y2542590D01*X2040099Y2543190D02*
X2037183Y2543190D01*X2037784Y2543790D02*X2039499Y2543790D01*X2038899Y2544390D02*
X2038384Y2544390D01*X2038521Y2544527D02*X2038761Y2544527D01*X2048353Y2542359D02*
X2051359Y2539353D01*X2054011Y2542005D01*X2051005Y2545011D01*X2048353Y2542359D01*
X2051359Y2539354D02*X2051360Y2539354D01*X2051960Y2539954D02*X2050759Y2539954D01*
X2050159Y2540554D02*X2052560Y2540554D01*X2053159Y2541154D02*X2049559Y2541154D01*
X2048959Y2541754D02*X2053760Y2541754D01*X2053663Y2542354D02*X2048359Y2542354D01*
X2048947Y2542954D02*X2053063Y2542954D01*X2052463Y2543554D02*X2049548Y2543554D01*
X2050148Y2544154D02*X2051863Y2544154D01*X2051263Y2544754D02*X2050748Y2544754D01*
X2050885Y2544891D02*X2051125Y2544891D01*X0Y0D02*D02*G54D134*
X1830000Y2166000D03*X1830000Y2174000D03*X1846000Y2166000D03*X1838000Y2166000D03*
X1846000Y2174000D03*X1838000Y2174000D03*X1886000Y2166000D03*X1878000Y2166000D03*
X1886000Y2174000D03*X1878000Y2174000D03*X1894000Y2166000D03*X1894000Y2174000D03*
X1992000Y2166000D03*X1984000Y2166000D03*X1976000Y2166000D03*X1992000Y2174000D03*
X1984000Y2174000D03*X1976000Y2174000D03*X2040000Y2166000D03*X2032000Y2166000D03*
X2024000Y2166000D03*X2040000Y2174000D03*X2032000Y2174000D03*X2024000Y2174000D03*
X1830000Y2182000D03*X1830000Y2190000D03*X1830000Y2198000D03*X1830000Y2206000D03*
X1846000Y2182000D03*X1838000Y2182000D03*X1846000Y2190000D03*X1838000Y2190000D03*
X1846000Y2198000D03*X1838000Y2198000D03*X1846000Y2206000D03*X1838000Y2206000D03*
X1886000Y2182000D03*X1878000Y2182000D03*X1886000Y2190000D03*X1878000Y2190000D03*
X1886000Y2198000D03*X1878000Y2198000D03*X1886000Y2206000D03*X1878000Y2206000D03*
X1894000Y2182000D03*X1894000Y2190000D03*X1894000Y2198000D03*X1894000Y2206000D03*
X1992000Y2182000D03*X1984000Y2182000D03*X1976000Y2182000D03*X1992000Y2190000D03*
X1984000Y2190000D03*X1976000Y2190000D03*X1992000Y2198000D03*X1984000Y2198000D03*
X1976000Y2198000D03*X1992000Y2206000D03*X1984000Y2206000D03*X1976000Y2206000D03*
X2040000Y2182000D03*X2032000Y2182000D03*X2024000Y2182000D03*X2040000Y2190000D03*
X2032000Y2190000D03*X2024000Y2190000D03*X2040000Y2198000D03*X2032000Y2198000D03*
X2024000Y2198000D03*X2040000Y2206000D03*X2032000Y2206000D03*X2024000Y2206000D03*
X1830000Y2214000D03*X1830000Y2222000D03*X1830000Y2230000D03*X1830000Y2238000D03*
X1830000Y2246000D03*X1846000Y2214000D03*X1838000Y2214000D03*X1846000Y2222000D03*
X1838000Y2222000D03*X1846000Y2230000D03*X1838000Y2230000D03*X1846000Y2238000D03*
X1838000Y2238000D03*X1846000Y2246000D03*X1838000Y2246000D03*X1886000Y2214000D03*
X1878000Y2214000D03*X1886000Y2222000D03*X1878000Y2222000D03*X1886000Y2230000D03*
X1878000Y2230000D03*X1886000Y2238000D03*X1878000Y2238000D03*X1886000Y2246000D03*
X1878000Y2246000D03*X1894000Y2214000D03*X1894000Y2222000D03*X1894000Y2230000D03*
X1894000Y2238000D03*X1894000Y2246000D03*X1992000Y2214000D03*X1984000Y2214000D03*
X1976000Y2214000D03*X1992000Y2222000D03*X1984000Y2222000D03*X1976000Y2222000D03*
X1992000Y2230000D03*X1984000Y2230000D03*X1976000Y2230000D03*X1992000Y2238000D03*
X1984000Y2238000D03*X1976000Y2238000D03*X1992000Y2246000D03*X1984000Y2246000D03*
X1976000Y2246000D03*X2040000Y2214000D03*X2032000Y2214000D03*X2024000Y2214000D03*
X2040000Y2222000D03*X2032000Y2222000D03*X2024000Y2222000D03*X2040000Y2230000D03*
X2032000Y2230000D03*X2024000Y2230000D03*X2040000Y2238000D03*X2032000Y2238000D03*
X2024000Y2238000D03*X2040000Y2246000D03*X2032000Y2246000D03*X2024000Y2246000D03*
X1830000Y2254000D03*X1830000Y2262000D03*X1830000Y2270000D03*X1830000Y2278000D03*
X1846000Y2254000D03*X1838000Y2254000D03*X1846000Y2262000D03*X1838000Y2262000D03*
X1846000Y2270000D03*X1838000Y2270000D03*X1846000Y2278000D03*X1838000Y2278000D03*
X1886000Y2254000D03*X1878000Y2254000D03*X1886000Y2262000D03*X1878000Y2262000D03*
X1886000Y2270000D03*X1878000Y2270000D03*X1886000Y2278000D03*X1878000Y2278000D03*
X1894000Y2254000D03*X1894000Y2262000D03*X1894000Y2270000D03*X1894000Y2278000D03*
X1992000Y2254000D03*X1984000Y2254000D03*X1976000Y2254000D03*X1992000Y2262000D03*
X1984000Y2262000D03*X1976000Y2262000D03*X1992000Y2270000D03*X1984000Y2270000D03*
X1976000Y2270000D03*X1992000Y2278000D03*X1984000Y2278000D03*X1976000Y2278000D03*
X2040000Y2254000D03*X2032000Y2254000D03*X2024000Y2254000D03*X2040000Y2262000D03*
X2032000Y2262000D03*X2024000Y2262000D03*X2040000Y2270000D03*X2032000Y2270000D03*
X2024000Y2270000D03*X2040000Y2278000D03*X2032000Y2278000D03*X2024000Y2278000D03*
X1830000Y2286000D03*X1846000Y2286000D03*X1838000Y2286000D03*X1886000Y2286000D03*
X1878000Y2286000D03*X1894000Y2286000D03*X1992000Y2286000D03*X1984000Y2286000D03*
X1976000Y2286000D03*X2040000Y2286000D03*X2032000Y2286000D03*X2024000Y2286000D03*
X2092000Y2310000D03*X2084000Y2310000D03*X2076000Y2310000D03*X2124000Y2310000D03*
X2116000Y2310000D03*X2108000Y2310000D03*X2100000Y2310000D03*X2148000Y2310000D03*
X2140000Y2310000D03*X2132000Y2310000D03*X2172000Y2310000D03*X2164000Y2310000D03*
X2156000Y2310000D03*X2196000Y2310000D03*X2188000Y2310000D03*X2180000Y2310000D03*
X2092000Y2326000D03*X2092000Y2318000D03*X2084000Y2326000D03*X2084000Y2318000D03*
X2076000Y2326000D03*X2076000Y2318000D03*X2124000Y2326000D03*X2124000Y2318000D03*
X2116000Y2326000D03*X2116000Y2318000D03*X2108000Y2326000D03*X2108000Y2318000D03*
X2100000Y2326000D03*X2100000Y2318000D03*X2148000Y2326000D03*X2148000Y2318000D03*
X2140000Y2326000D03*X2140000Y2318000D03*X2132000Y2326000D03*X2132000Y2318000D03*
X2172000Y2326000D03*X2172000Y2318000D03*X2164000Y2326000D03*X2164000Y2318000D03*
X2156000Y2326000D03*X2156000Y2318000D03*X2196000Y2326000D03*X2196000Y2318000D03*
X2188000Y2326000D03*X2188000Y2318000D03*X2180000Y2326000D03*X2180000Y2318000D03*
X2092000Y2374000D03*X2092000Y2366000D03*X2092000Y2358000D03*X2084000Y2374000D03*
X2084000Y2366000D03*X2084000Y2358000D03*X2076000Y2374000D03*X2076000Y2366000D03*
X2076000Y2358000D03*X2124000Y2374000D03*X2124000Y2366000D03*X2124000Y2358000D03*
X2116000Y2374000D03*X2116000Y2366000D03*X2116000Y2358000D03*X2108000Y2374000D03*
X2108000Y2366000D03*X2108000Y2358000D03*X2100000Y2374000D03*X2100000Y2366000D03*
X2100000Y2358000D03*X2148000Y2374000D03*X2148000Y2366000D03*X2148000Y2358000D03*
X2140000Y2374000D03*X2140000Y2366000D03*X2140000Y2358000D03*X2132000Y2374000D03*
X2132000Y2366000D03*X2132000Y2358000D03*X2172000Y2374000D03*X2172000Y2366000D03*
X2172000Y2358000D03*X2164000Y2374000D03*X2164000Y2366000D03*X2164000Y2358000D03*
X2156000Y2374000D03*X2156000Y2366000D03*X2156000Y2358000D03*X2196000Y2374000D03*
X2196000Y2366000D03*X2196000Y2358000D03*X2188000Y2374000D03*X2188000Y2366000D03*
X2188000Y2358000D03*X2180000Y2374000D03*X2180000Y2366000D03*X2180000Y2358000D03*
X2092000Y2471000D03*X2092000Y2463000D03*X2092000Y2455000D03*X2084000Y2471000D03*
X2084000Y2463000D03*X2084000Y2455000D03*X2076000Y2471000D03*X2076000Y2463000D03*
X2076000Y2455000D03*X2124000Y2471000D03*X2124000Y2463000D03*X2124000Y2455000D03*
X2116000Y2471000D03*X2116000Y2463000D03*X2116000Y2455000D03*X2108000Y2471000D03*
X2108000Y2463000D03*X2108000Y2455000D03*X2100000Y2471000D03*X2100000Y2463000D03*
X2100000Y2455000D03*X2148000Y2471000D03*X2148000Y2463000D03*X2148000Y2455000D03*
X2140000Y2471000D03*X2140000Y2463000D03*X2140000Y2455000D03*X2132000Y2471000D03*
X2132000Y2463000D03*X2132000Y2455000D03*X2172000Y2471000D03*X2172000Y2463000D03*
X2172000Y2455000D03*X2164000Y2471000D03*X2164000Y2463000D03*X2164000Y2455000D03*
X2156000Y2471000D03*X2156000Y2463000D03*X2156000Y2455000D03*X2196000Y2471000D03*
X2196000Y2463000D03*X2196000Y2455000D03*X2188000Y2471000D03*X2188000Y2463000D03*
X2188000Y2455000D03*X2180000Y2471000D03*X2180000Y2463000D03*X2180000Y2455000D03*
X2092000Y2503000D03*X2084000Y2503000D03*X2076000Y2503000D03*X2124000Y2503000D03*
X2116000Y2503000D03*X2108000Y2503000D03*X2100000Y2503000D03*X2148000Y2503000D03*
X2140000Y2503000D03*X2132000Y2503000D03*X2172000Y2503000D03*X2164000Y2503000D03*
X2156000Y2503000D03*X2196000Y2503000D03*X2188000Y2503000D03*X2180000Y2503000D03*
X2092000Y2519000D03*X2092000Y2511000D03*X2084000Y2519000D03*X2084000Y2511000D03*
X2076000Y2519000D03*X2076000Y2511000D03*X2124000Y2519000D03*X2124000Y2511000D03*
X2116000Y2519000D03*X2116000Y2511000D03*X2108000Y2519000D03*X2108000Y2511000D03*
X2100000Y2519000D03*X2100000Y2511000D03*X2148000Y2519000D03*X2148000Y2511000D03*
X2140000Y2519000D03*X2140000Y2511000D03*X2132000Y2519000D03*X2132000Y2511000D03*
X2172000Y2519000D03*X2172000Y2511000D03*X2164000Y2519000D03*X2164000Y2511000D03*
X2156000Y2519000D03*X2156000Y2511000D03*X2196000Y2519000D03*X2196000Y2511000D03*
X2188000Y2519000D03*X2188000Y2511000D03*X2180000Y2519000D03*X2180000Y2511000D03*
D02*G54D135*X1838250Y2371250D03*X1844750Y2371250D03*X1851250Y2371250D03*
X1838250Y2364750D03*X1844750Y2364750D03*X1851250Y2364750D03*X1857750Y2364750D03*
X1838250Y2358250D03*X1844750Y2358250D03*X1851250Y2358250D03*X1857750Y2358250D03*
X1838250Y2351750D03*X1844750Y2351750D03*X1851250Y2351750D03*X1857750Y2351750D03*
X1864250Y2371250D03*X1870750Y2371250D03*X1883750Y2371250D03*X1864250Y2364750D03*
X1870750Y2364750D03*X1883750Y2364750D03*X1864250Y2358250D03*X1870750Y2358250D03*
X1877250Y2358250D03*X1883750Y2358250D03*X1864250Y2351750D03*X1870750Y2351750D03*
X1877250Y2351750D03*X1883750Y2351750D03*X1890250Y2371250D03*X1903250Y2371250D03*
X1909750Y2371250D03*X1890250Y2364750D03*X1903250Y2364750D03*X1909750Y2364750D03*
X1890250Y2358250D03*X1896750Y2358250D03*X1903250Y2358250D03*X1909750Y2358250D03*
X1890250Y2351750D03*X1896750Y2351750D03*X1903250Y2351750D03*X1909750Y2351750D03*
X1922750Y2371250D03*X1929250Y2371250D03*X1922750Y2364750D03*X1929250Y2364750D03*
X1916250Y2358250D03*X1922750Y2358250D03*X1929250Y2358250D03*X1935750Y2358250D03*
X1916250Y2351750D03*X1922750Y2351750D03*X1929250Y2351750D03*X1935750Y2351750D03*
X1942250Y2371250D03*X1948750Y2371250D03*X1961750Y2371250D03*X1942250Y2364750D03*
X1948750Y2364750D03*X1961750Y2364750D03*X1942250Y2358250D03*X1948750Y2358250D03*
X1955250Y2358250D03*X1961750Y2358250D03*X1942250Y2351750D03*X1948750Y2351750D03*
X1955250Y2351750D03*X1961750Y2351750D03*X1968250Y2371250D03*X1981250Y2371250D03*
X1987750Y2371250D03*X1968250Y2364750D03*X1981250Y2364750D03*X1987750Y2364750D03*
X1968250Y2358250D03*X1974750Y2358250D03*X1981250Y2358250D03*X1987750Y2358250D03*
X1968250Y2351750D03*X1974750Y2351750D03*X1981250Y2351750D03*X1987750Y2351750D03*
X2000750Y2371250D03*X2007250Y2371250D03*X2013750Y2371250D03*X1994250Y2364750D03*
X2000750Y2364750D03*X2007250Y2364750D03*X2013750Y2364750D03*X1994250Y2358250D03*
X2000750Y2358250D03*X2007250Y2358250D03*X2013750Y2358250D03*X1994250Y2351750D03*
X2000750Y2351750D03*X2007250Y2351750D03*X2013750Y2351750D03*X1838250Y2403750D03*
X1844750Y2403750D03*X1851250Y2403750D03*X1857750Y2403750D03*X1838250Y2397250D03*
X1844750Y2397250D03*X1851250Y2397250D03*X1857750Y2397250D03*X1838250Y2390750D03*
X1844750Y2390750D03*X1838250Y2384250D03*X1844750Y2384250D03*X1851250Y2384250D03*
X1857750Y2384250D03*X1838250Y2377750D03*X1844750Y2377750D03*X1851250Y2377750D03*
X1857750Y2377750D03*X1864250Y2403750D03*X1870750Y2403750D03*X1877250Y2403750D03*
X1883750Y2403750D03*X1864250Y2397250D03*X1870750Y2397250D03*X1877250Y2397250D03*
X1864250Y2390750D03*X1870750Y2390750D03*X1883750Y2390750D03*X1864250Y2384250D03*
X1877250Y2384250D03*X1883750Y2384250D03*X1870750Y2377750D03*X1877250Y2377750D03*
X1883750Y2377750D03*X1890250Y2403750D03*X1903250Y2403750D03*X1909750Y2403750D03*
X1890250Y2397250D03*X1903250Y2397250D03*X1909750Y2397250D03*X1890250Y2390750D03*
X1903250Y2390750D03*X1909750Y2390750D03*X1890250Y2384250D03*X1903250Y2384250D03*
X1909750Y2384250D03*X1890250Y2377750D03*X1903250Y2377750D03*X1909750Y2377750D03*
X1922750Y2403750D03*X1929250Y2403750D03*X1922750Y2397250D03*X1929250Y2397250D03*
X1922750Y2390750D03*X1929250Y2390750D03*X1922750Y2384250D03*X1929250Y2384250D03*
X1922750Y2377750D03*X1929250Y2377750D03*X1942250Y2403750D03*X1948750Y2403750D03*
X1961750Y2403750D03*X1942250Y2397250D03*X1948750Y2397250D03*X1961750Y2397250D03*
X1942250Y2390750D03*X1948750Y2390750D03*X1961750Y2390750D03*X1942250Y2384250D03*
X1948750Y2384250D03*X1961750Y2384250D03*X1942250Y2377750D03*X1948750Y2377750D03*
X1961750Y2377750D03*X1968250Y2403750D03*X1974750Y2403750D03*X1981250Y2403750D03*
X1987750Y2403750D03*X1974750Y2397250D03*X1981250Y2397250D03*X1987750Y2397250D03*
X1968250Y2390750D03*X1981250Y2390750D03*X1987750Y2390750D03*X1968250Y2384250D03*
X1974750Y2384250D03*X1987750Y2384250D03*X1968250Y2377750D03*X1974750Y2377750D03*
X1981250Y2377750D03*X1994250Y2403750D03*X2000750Y2403750D03*X2007250Y2403750D03*
X2013750Y2403750D03*X1994250Y2397250D03*X2000750Y2397250D03*X2007250Y2397250D03*
X2013750Y2397250D03*X2007250Y2390750D03*X2013750Y2390750D03*X1994250Y2384250D03*
X2000750Y2384250D03*X2007250Y2384250D03*X2013750Y2384250D03*X1994250Y2377750D03*
X2000750Y2377750D03*X2007250Y2377750D03*X2013750Y2377750D03*X1838250Y2436250D03*
X1844750Y2436250D03*X1851250Y2436250D03*X1857750Y2436250D03*X1838250Y2429750D03*
X1844750Y2429750D03*X1838250Y2423250D03*X1844750Y2423250D03*X1851250Y2423250D03*
X1857750Y2423250D03*X1838250Y2416750D03*X1844750Y2416750D03*X1851250Y2416750D03*
X1857750Y2416750D03*X1838250Y2410250D03*X1844750Y2410250D03*X1864250Y2436250D03*
X1870750Y2436250D03*X1877250Y2436250D03*X1883750Y2436250D03*X1864250Y2423250D03*
X1870750Y2423250D03*X1877250Y2423250D03*X1883750Y2423250D03*X1864250Y2416750D03*
X1870750Y2416750D03*X1877250Y2416750D03*X1883750Y2416750D03*X1890250Y2436250D03*
X1896750Y2436250D03*X1903250Y2436250D03*X1909750Y2436250D03*X1896750Y2429750D03*
X1903250Y2429750D03*X1909750Y2429750D03*X1890250Y2423250D03*X1896750Y2423250D03*
X1903250Y2423250D03*X1909750Y2423250D03*X1890250Y2416750D03*X1896750Y2416750D03*
X1903250Y2416750D03*X1909750Y2416750D03*X1896750Y2410250D03*X1903250Y2410250D03*
X1909750Y2410250D03*X1916250Y2436250D03*X1922750Y2436250D03*X1929250Y2436250D03*
X1935750Y2436250D03*X1916250Y2429750D03*X1922750Y2429750D03*X1929250Y2429750D03*
X1935750Y2429750D03*X1916250Y2423250D03*X1922750Y2423250D03*X1929250Y2423250D03*
X1935750Y2423250D03*X1916250Y2416750D03*X1922750Y2416750D03*X1929250Y2416750D03*
X1935750Y2416750D03*X1916250Y2410250D03*X1922750Y2410250D03*X1929250Y2410250D03*
X1935750Y2410250D03*X1942250Y2436250D03*X1948750Y2436250D03*X1955250Y2436250D03*
X1961750Y2436250D03*X1942250Y2429750D03*X1948750Y2429750D03*X1955250Y2429750D03*
X1942250Y2423250D03*X1948750Y2423250D03*X1955250Y2423250D03*X1961750Y2423250D03*
X1942250Y2416750D03*X1948750Y2416750D03*X1955250Y2416750D03*X1961750Y2416750D03*
X1942250Y2410250D03*X1948750Y2410250D03*X1955250Y2410250D03*X1968250Y2436250D03*
X1974750Y2436250D03*X1981250Y2436250D03*X1987750Y2436250D03*X1968250Y2423250D03*
X1974750Y2423250D03*X1981250Y2423250D03*X1987750Y2423250D03*X1968250Y2416750D03*
X1974750Y2416750D03*X1981250Y2416750D03*X1987750Y2416750D03*X1994250Y2436250D03*
X2000750Y2436250D03*X2007250Y2436250D03*X2013750Y2436250D03*X2007250Y2429750D03*
X2013750Y2429750D03*X1994250Y2423250D03*X2000750Y2423250D03*X2007250Y2423250D03*
X2013750Y2423250D03*X1994250Y2416750D03*X2000750Y2416750D03*X2007250Y2416750D03*
X2013750Y2416750D03*X2007250Y2410250D03*X2013750Y2410250D03*X1838250Y2468750D03*
X1844750Y2468750D03*X1838250Y2462250D03*X1844750Y2462250D03*X1851250Y2462250D03*
X1857750Y2462250D03*X1838250Y2455750D03*X1844750Y2455750D03*X1851250Y2455750D03*
X1857750Y2455750D03*X1838250Y2449250D03*X1844750Y2449250D03*X1838250Y2442750D03*
X1844750Y2442750D03*X1851250Y2442750D03*X1857750Y2442750D03*X1864250Y2462250D03*
X1870750Y2462250D03*X1877250Y2462250D03*X1883750Y2462250D03*X1864250Y2455750D03*
X1870750Y2455750D03*X1877250Y2455750D03*X1883750Y2455750D03*X1864250Y2442750D03*
X1870750Y2442750D03*X1877250Y2442750D03*X1883750Y2442750D03*X1896750Y2468750D03*
X1903250Y2468750D03*X1909750Y2468750D03*X1890250Y2462250D03*X1896750Y2462250D03*
X1903250Y2462250D03*X1909750Y2462250D03*X1890250Y2455750D03*X1896750Y2455750D03*
X1903250Y2455750D03*X1909750Y2455750D03*X1896750Y2449250D03*X1903250Y2449250D03*
X1909750Y2449250D03*X1890250Y2442750D03*X1896750Y2442750D03*X1903250Y2442750D03*
X1909750Y2442750D03*X1916250Y2468750D03*X1922750Y2468750D03*X1929250Y2468750D03*
X1935750Y2468750D03*X1916250Y2462250D03*X1922750Y2462250D03*X1929250Y2462250D03*
X1935750Y2462250D03*X1916250Y2455750D03*X1922750Y2455750D03*X1929250Y2455750D03*
X1935750Y2455750D03*X1916250Y2449250D03*X1922750Y2449250D03*X1929250Y2449250D03*
X1935750Y2449250D03*X1916250Y2442750D03*X1922750Y2442750D03*X1929250Y2442750D03*
X1935750Y2442750D03*X1942250Y2468750D03*X1948750Y2468750D03*X1955250Y2468750D03*
X1942250Y2462250D03*X1948750Y2462250D03*X1955250Y2462250D03*X1961750Y2462250D03*
X1942250Y2455750D03*X1948750Y2455750D03*X1955250Y2455750D03*X1961750Y2455750D03*
X1942250Y2449250D03*X1948750Y2449250D03*X1955250Y2449250D03*X1942250Y2442750D03*
X1948750Y2442750D03*X1955250Y2442750D03*X1961750Y2442750D03*X1968250Y2462250D03*
X1974750Y2462250D03*X1981250Y2462250D03*X1987750Y2462250D03*X1968250Y2455750D03*
X1974750Y2455750D03*X1981250Y2455750D03*X1987750Y2455750D03*X1968250Y2442750D03*
X1974750Y2442750D03*X1981250Y2442750D03*X1987750Y2442750D03*X2007250Y2468750D03*
X2013750Y2468750D03*X1994250Y2462250D03*X2000750Y2462250D03*X2007250Y2462250D03*
X2013750Y2462250D03*X1994250Y2455750D03*X2000750Y2455750D03*X2007250Y2455750D03*
X2013750Y2455750D03*X2007250Y2449250D03*X2013750Y2449250D03*X1994250Y2442750D03*
X2000750Y2442750D03*X2007250Y2442750D03*X2013750Y2442750D03*X1838250Y2501250D03*
X1844750Y2501250D03*X1851250Y2501250D03*X1857750Y2501250D03*X1838250Y2494750D03*
X1844750Y2494750D03*X1851250Y2494750D03*X1857750Y2494750D03*X1838250Y2488250D03*
X1844750Y2488250D03*X1838250Y2481750D03*X1844750Y2481750D03*X1851250Y2481750D03*
X1857750Y2481750D03*X1838250Y2475250D03*X1844750Y2475250D03*X1851250Y2475250D03*
X1857750Y2475250D03*X1870750Y2501250D03*X1877250Y2501250D03*X1883750Y2501250D03*
X1864250Y2494750D03*X1877250Y2494750D03*X1883750Y2494750D03*X1864250Y2488250D03*
X1870750Y2488250D03*X1883750Y2488250D03*X1864250Y2481750D03*X1870750Y2481750D03*
X1877250Y2481750D03*X1864250Y2475250D03*X1870750Y2475250D03*X1877250Y2475250D03*
X1883750Y2475250D03*X1890250Y2501250D03*X1903250Y2501250D03*X1909750Y2501250D03*
X1890250Y2494750D03*X1903250Y2494750D03*X1909750Y2494750D03*X1890250Y2488250D03*
X1903250Y2488250D03*X1909750Y2488250D03*X1890250Y2481750D03*X1903250Y2481750D03*
X1909750Y2481750D03*X1890250Y2475250D03*X1903250Y2475250D03*X1909750Y2475250D03*
X1922750Y2501250D03*X1929250Y2501250D03*X1922750Y2494750D03*X1929250Y2494750D03*
X1922750Y2488250D03*X1929250Y2488250D03*X1922750Y2481750D03*X1929250Y2481750D03*
X1922750Y2475250D03*X1929250Y2475250D03*X1942250Y2501250D03*X1948750Y2501250D03*
X1961750Y2501250D03*X1942250Y2494750D03*X1948750Y2494750D03*X1961750Y2494750D03*
X1942250Y2488250D03*X1948750Y2488250D03*X1961750Y2488250D03*X1942250Y2481750D03*
X1948750Y2481750D03*X1961750Y2481750D03*X1942250Y2475250D03*X1948750Y2475250D03*
X1961750Y2475250D03*X1968250Y2501250D03*X1974750Y2501250D03*X1981250Y2501250D03*
X1968250Y2494750D03*X1974750Y2494750D03*X1987750Y2494750D03*X1968250Y2488250D03*
X1981250Y2488250D03*X1987750Y2488250D03*X1974750Y2481750D03*X1981250Y2481750D03*
X1987750Y2481750D03*X1968250Y2475250D03*X1974750Y2475250D03*X1981250Y2475250D03*
X1987750Y2475250D03*X1994250Y2501250D03*X2000750Y2501250D03*X2007250Y2501250D03*
X2013750Y2501250D03*X1994250Y2494750D03*X2000750Y2494750D03*X2007250Y2494750D03*
X2013750Y2494750D03*X2007250Y2488250D03*X2013750Y2488250D03*X1994250Y2481750D03*
X2000750Y2481750D03*X2007250Y2481750D03*X2013750Y2481750D03*X1994250Y2475250D03*
X2000750Y2475250D03*X2007250Y2475250D03*X2013750Y2475250D03*X1838250Y2527250D03*
X1844750Y2527250D03*X1851250Y2527250D03*X1857750Y2527250D03*X1838250Y2520750D03*
X1844750Y2520750D03*X1851250Y2520750D03*X1857750Y2520750D03*X1838250Y2514250D03*
X1844750Y2514250D03*X1851250Y2514250D03*X1857750Y2514250D03*X1838250Y2507750D03*
X1844750Y2507750D03*X1851250Y2507750D03*X1864250Y2527250D03*X1870750Y2527250D03*
X1877250Y2527250D03*X1883750Y2527250D03*X1864250Y2520750D03*X1870750Y2520750D03*
X1877250Y2520750D03*X1883750Y2520750D03*X1864250Y2514250D03*X1870750Y2514250D03*
X1883750Y2514250D03*X1864250Y2507750D03*X1870750Y2507750D03*X1883750Y2507750D03*
X1890250Y2527250D03*X1896750Y2527250D03*X1903250Y2527250D03*X1909750Y2527250D03*
X1890250Y2520750D03*X1896750Y2520750D03*X1903250Y2520750D03*X1909750Y2520750D03*
X1890250Y2514250D03*X1903250Y2514250D03*X1909750Y2514250D03*X1890250Y2507750D03*
X1903250Y2507750D03*X1909750Y2507750D03*X1916250Y2527250D03*X1922750Y2527250D03*
X1929250Y2527250D03*X1935750Y2527250D03*X1916250Y2520750D03*X1922750Y2520750D03*
X1929250Y2520750D03*X1935750Y2520750D03*X1922750Y2514250D03*X1929250Y2514250D03*
X1922750Y2507750D03*X1929250Y2507750D03*X1942250Y2527250D03*X1948750Y2527250D03*
X1955250Y2527250D03*X1961750Y2527250D03*X1942250Y2520750D03*X1948750Y2520750D03*
X1955250Y2520750D03*X1961750Y2520750D03*X1942250Y2514250D03*X1948750Y2514250D03*
X1961750Y2514250D03*X1942250Y2507750D03*X1948750Y2507750D03*X1961750Y2507750D03*
X1968250Y2527250D03*X1974750Y2527250D03*X1981250Y2527250D03*X1987750Y2527250D03*
X1968250Y2520750D03*X1974750Y2520750D03*X1981250Y2520750D03*X1987750Y2520750D03*
X1968250Y2514250D03*X1981250Y2514250D03*X1987750Y2514250D03*X1968250Y2507750D03*
X1981250Y2507750D03*X1987750Y2507750D03*X1994250Y2527250D03*X2000750Y2527250D03*
X2007250Y2527250D03*X2013750Y2527250D03*X1994250Y2520750D03*X2000750Y2520750D03*
X2007250Y2520750D03*X2013750Y2520750D03*X1994250Y2514250D03*X2000750Y2514250D03*
X2007250Y2514250D03*X2013750Y2514250D03*X2000750Y2507750D03*X2007250Y2507750D03*
X2013750Y2507750D03*D02*G54D136*X2200500Y2614500D03*X2195500Y2614500D03*
X2200500Y2619500D03*X2195500Y2619500D03*X2200500Y2624500D03*X2195500Y2624500D03*
X2200500Y2629500D03*X2195500Y2629500D03*X2225500Y2614500D03*X2220500Y2614500D03*
X2215500Y2614500D03*X2210500Y2614500D03*X2205500Y2614500D03*X2225500Y2619500D03*
X2220500Y2619500D03*X2215500Y2619500D03*X2210500Y2619500D03*X2205500Y2619500D03*
X2225500Y2624500D03*X2220500Y2624500D03*X2215500Y2624500D03*X2210500Y2624500D03*
X2205500Y2624500D03*X2205500Y2629500D03*X2250500Y2614500D03*X2245500Y2614500D03*
X2240500Y2614500D03*X2235500Y2614500D03*X2230500Y2614500D03*X2250500Y2619500D03*
X2245500Y2619500D03*X2240500Y2619500D03*X2235500Y2619500D03*X2230500Y2619500D03*
X2250500Y2624500D03*X2245500Y2624500D03*X2240500Y2624500D03*X2235500Y2624500D03*
X2230500Y2624500D03*X2250500Y2629500D03*X2260500Y2614500D03*X2255500Y2614500D03*
X2260500Y2619500D03*X2255500Y2619500D03*X2260500Y2624500D03*X2255500Y2624500D03*
X2260500Y2629500D03*X2255500Y2629500D03*X2200500Y2634500D03*X2195500Y2634500D03*
X2200500Y2639500D03*X2195500Y2639500D03*X2200500Y2644500D03*X2195500Y2644500D03*
X2200500Y2649500D03*X2195500Y2649500D03*X2200500Y2654500D03*X2195500Y2654500D03*
X2200500Y2659500D03*X2195500Y2659500D03*X2200500Y2664500D03*X2195500Y2664500D03*
X2225500Y2634500D03*X2220500Y2634500D03*X2215500Y2634500D03*X2205500Y2634500D03*
X2215500Y2639500D03*X2205500Y2639500D03*X2215500Y2644500D03*X2205500Y2644500D03*
X2215500Y2649500D03*X2205500Y2649500D03*X2215500Y2654500D03*X2205500Y2654500D03*
X2225500Y2659500D03*X2220500Y2659500D03*X2215500Y2659500D03*X2205500Y2659500D03*
X2210500Y2664500D03*X2205500Y2664500D03*X2250500Y2634500D03*X2240500Y2634500D03*
X2235500Y2634500D03*X2230500Y2634500D03*X2250500Y2639500D03*X2240500Y2639500D03*
X2250500Y2644500D03*X2240500Y2644500D03*X2250500Y2649500D03*X2240500Y2649500D03*
X2250500Y2654500D03*X2240500Y2654500D03*X2250500Y2659500D03*X2240500Y2659500D03*
X2235500Y2659500D03*X2230500Y2659500D03*X2250500Y2664500D03*X2260500Y2634500D03*
X2255500Y2634500D03*X2260500Y2639500D03*X2255500Y2639500D03*X2260500Y2644500D03*
X2255500Y2644500D03*X2260500Y2649500D03*X2255500Y2649500D03*X2260500Y2654500D03*
X2255500Y2654500D03*X2260500Y2659500D03*X2255500Y2659500D03*X2260500Y2664500D03*
X2255500Y2664500D03*X1990000Y2674000D03*X1990000Y2678000D03*X1990000Y2682000D03*
X1990000Y2686000D03*X1994000Y2674000D03*X1994000Y2678000D03*X1994000Y2682000D03*
X1994000Y2686000D03*X1998000Y2674000D03*X1998000Y2678000D03*X1998000Y2682000D03*
X1998000Y2686000D03*X2002000Y2674000D03*X2002000Y2678000D03*X2002000Y2682000D03*
X2002000Y2686000D03*X2006000Y2674000D03*X2006000Y2678000D03*X2006000Y2682000D03*
X2006000Y2686000D03*X2084000Y2674000D03*X2084000Y2678000D03*X2084000Y2682000D03*
X2084000Y2686000D03*X2088000Y2674000D03*X2088000Y2678000D03*X2088000Y2682000D03*
X2088000Y2686000D03*X2092000Y2674000D03*X2092000Y2678000D03*X2092000Y2682000D03*
X2092000Y2686000D03*X2096000Y2674000D03*X2096000Y2678000D03*X2096000Y2682000D03*
X2096000Y2686000D03*X2100000Y2674000D03*X2100000Y2678000D03*X2100000Y2682000D03*
X2100000Y2686000D03*X2200500Y2669500D03*X2195500Y2669500D03*X2200500Y2674500D03*
X2195500Y2674500D03*X2200500Y2679500D03*X2195500Y2679500D03*X2225500Y2669500D03*
X2220500Y2669500D03*X2215500Y2669500D03*X2210500Y2669500D03*X2205500Y2669500D03*
X2225500Y2674500D03*X2220500Y2674500D03*X2215500Y2674500D03*X2210500Y2674500D03*
X2205500Y2674500D03*X2225500Y2679500D03*X2220500Y2679500D03*X2215500Y2679500D03*
X2210500Y2679500D03*X2205500Y2679500D03*X2250500Y2669500D03*X2245500Y2669500D03*
X2240500Y2669500D03*X2235500Y2669500D03*X2230500Y2669500D03*X2250500Y2674500D03*
X2245500Y2674500D03*X2240500Y2674500D03*X2235500Y2674500D03*X2230500Y2674500D03*
X2250500Y2679500D03*X2245500Y2679500D03*X2240500Y2679500D03*X2235500Y2679500D03*
X2230500Y2679500D03*X2260500Y2669500D03*X2255500Y2669500D03*X2260500Y2674500D03*
X2255500Y2674500D03*X2260500Y2679500D03*X2255500Y2679500D03*D02*G54D163*
X2143001Y2189000D03*X2143001Y2204000D03*X2143001Y2219000D03*X2173001Y2219000D03*
X2173001Y2204000D03*X2173001Y2189000D03*X2158001Y2189000D03*X2158001Y2204000D03*
X2158001Y2219000D03*X1841000Y2627000D03*X1841000Y2642000D03*X1841000Y2657000D03*
X1871000Y2657000D03*X1871000Y2642000D03*X1871000Y2627000D03*X1856000Y2627000D03*
X1856000Y2642000D03*X1856000Y2657000D03*D02*G54D171*X2316000Y2606000D03*
X2384000Y2606000D03*D02*G54D172*X2340000Y2583500D03*X2360000Y2583500D03*M02*
